<?xml version="1.0" encoding="UTF-8"?>

<svg version="1.2" baseProfile="tiny" width="91.61mm" height="84.94mm" viewBox="1000 2962 9161 8494" preserveAspectRatio="xMidYMid" fill-rule="evenodd" stroke-width="28.222" stroke-linejoin="round" xmlns="http://www.w3.org/2000/svg" xmlns:ooo="http://xml.openoffice.org/svg/export" xmlns:xlink="http://www.w3.org/1999/xlink" xml:space="preserve">
 <defs class="ClipPathGroup">
  <clipPath id="presentation_clip_path" clipPathUnits="userSpaceOnUse">
   <rect x="1000" y="2962" width="9161" height="8494"/>
  </clipPath>
 </defs>
 <defs>
  <font id="EmbeddedFont_1" horiz-adv-x="2048">
   <font-face font-family="Arial embedded" units-per-em="2048" font-weight="normal" font-style="normal" ascent="1852" descent="450"/>
   <missing-glyph horiz-adv-x="2048" d="M 0,0 L 2047,0 2047,2047 0,2047 0,0 Z"/>
   <glyph unicode="x" horiz-adv-x="1006" d="M 801,0 L 510,444 217,0 23,0 408,556 41,1082 240,1082 510,661 778,1082 979,1082 612,558 1002,0 801,0 Z"/>
   <glyph unicode="v" horiz-adv-x="1033" d="M 613,0 L 400,0 7,1082 199,1082 437,378 C 442,363 447,346 454,325 460,304 466,282 473,259 480,236 486,215 492,194 497,173 502,155 506,141 510,155 515,173 522,194 528,215 534,236 541,258 548,280 555,302 562,323 569,344 575,361 580,376 L 826,1082 1017,1082 613,0 Z"/>
   <glyph unicode="u" horiz-adv-x="874" d="M 314,1082 L 314,396 C 314,343 318,299 326,264 333,229 346,200 363,179 380,157 403,142 432,133 460,124 495,119 537,119 580,119 618,127 653,142 687,157 716,178 741,207 765,235 784,270 797,312 810,353 817,401 817,455 L 817,1082 997,1082 997,231 C 997,208 997,185 998,160 998,135 998,111 999,89 1000,66 1000,47 1001,31 1002,15 1002,5 1003,0 L 833,0 C 832,3 832,12 831,27 830,42 830,59 829,78 828,97 827,116 826,136 825,155 825,172 825,185 L 822,185 C 805,154 786,125 765,100 744,75 720,53 693,36 666,18 634,4 599,-6 564,-15 523,-20 476,-20 416,-20 364,-13 321,2 278,17 242,39 214,70 186,101 166,140 153,188 140,236 133,294 133,361 L 133,1082 314,1082 Z"/>
   <glyph unicode="t" horiz-adv-x="531" d="M 554,8 C 527,1 499,-5 471,-10 442,-14 409,-16 372,-16 228,-16 156,66 156,229 L 156,951 31,951 31,1082 163,1082 216,1324 336,1324 336,1082 536,1082 536,951 336,951 336,268 C 336,216 345,180 362,159 379,138 408,127 450,127 467,127 484,128 501,131 517,134 535,137 554,141 L 554,8 Z"/>
   <glyph unicode="r" horiz-adv-x="530" d="M 142,0 L 142,830 C 142,853 142,876 142,900 141,923 141,946 140,968 139,990 139,1011 138,1030 137,1049 137,1067 136,1082 L 306,1082 C 307,1067 308,1049 309,1030 310,1010 311,990 312,969 313,948 313,929 314,910 314,891 314,874 314,861 L 318,861 C 331,902 344,938 359,969 373,999 390,1024 409,1044 428,1063 451,1078 478,1088 505,1097 537,1102 575,1102 590,1102 604,1101 617,1099 630,1096 641,1094 648,1092 L 648,927 C 636,930 622,933 606,935 590,936 572,937 552,937 511,937 476,928 447,909 418,890 394,865 376,832 357,799 344,759 335,714 326,668 322,618 322,564 L 322,0 142,0 Z"/>
   <glyph unicode="p" horiz-adv-x="953" d="M 1053,546 C 1053,464 1046,388 1033,319 1020,250 998,190 967,140 936,90 895,51 844,23 793,-6 730,-20 655,-20 578,-20 510,-5 452,24 394,53 350,101 319,168 L 314,168 C 315,167 315,161 316,150 316,139 316,126 317,110 317,94 317,76 318,57 318,37 318,17 318,-2 L 318,-425 138,-425 138,861 C 138,887 138,912 138,936 137,960 137,982 136,1002 135,1021 135,1038 134,1052 133,1066 133,1076 132,1082 L 306,1082 C 307,1080 308,1073 309,1061 310,1049 311,1035 312,1018 313,1001 314,982 315,963 316,944 316,925 316,908 L 320,908 C 337,943 356,972 377,997 398,1021 423,1041 450,1057 477,1072 508,1084 542,1091 575,1098 613,1101 655,1101 730,1101 793,1088 844,1061 895,1034 936,997 967,949 998,900 1020,842 1033,774 1046,705 1053,629 1053,546 Z M 864,542 C 864,609 860,668 852,720 844,772 830,816 811,852 791,888 765,915 732,934 699,953 658,962 609,962 569,962 531,956 496,945 461,934 430,912 404,880 377,848 356,804 341,748 326,691 318,618 318,528 318,451 324,387 337,334 350,281 368,238 393,205 417,172 447,149 483,135 519,120 560,113 607,113 657,113 699,123 732,142 765,161 791,189 811,226 830,263 844,308 852,361 860,414 864,474 864,542 Z"/>
   <glyph unicode="o" horiz-adv-x="980" d="M 1053,542 C 1053,353 1011,212 928,119 845,26 724,-20 565,-20 490,-20 422,-9 363,14 304,37 254,71 213,118 172,165 140,223 119,294 97,364 86,447 86,542 86,915 248,1102 571,1102 655,1102 728,1090 789,1067 850,1044 900,1009 939,962 978,915 1006,857 1025,787 1044,717 1053,635 1053,542 Z M 864,542 C 864,626 858,695 845,750 832,805 813,848 788,881 763,914 732,937 696,950 660,963 619,969 574,969 528,969 487,962 450,949 413,935 381,912 355,879 329,846 309,802 296,747 282,692 275,624 275,542 275,458 282,389 297,334 312,279 332,235 358,202 383,169 414,146 449,133 484,120 522,113 563,113 609,113 651,120 688,133 725,146 757,168 783,201 809,234 829,278 843,333 857,388 864,458 864,542 Z"/>
   <glyph unicode="n" horiz-adv-x="874" d="M 825,0 L 825,686 C 825,739 821,783 814,818 806,853 793,882 776,904 759,925 736,941 708,950 679,959 644,963 602,963 559,963 521,956 487,941 452,926 423,904 399,876 374,847 355,812 342,771 329,729 322,681 322,627 L 322,0 142,0 142,851 C 142,874 142,898 142,923 141,948 141,971 140,994 139,1016 139,1035 138,1051 137,1067 137,1077 136,1082 L 306,1082 C 307,1079 307,1070 308,1055 309,1040 310,1024 311,1005 312,986 312,966 313,947 314,927 314,910 314,897 L 317,897 C 334,928 353,957 374,982 395,1007 419,1029 446,1047 473,1064 505,1078 540,1088 575,1097 616,1102 663,1102 723,1102 775,1095 818,1080 861,1065 897,1043 925,1012 953,981 974,942 987,894 1000,845 1006,788 1006,721 L 1006,0 825,0 Z"/>
   <glyph unicode="m" horiz-adv-x="1457" d="M 768,0 L 768,686 C 768,739 765,783 758,818 751,853 740,882 725,904 709,925 688,941 663,950 638,959 607,963 570,963 532,963 498,956 467,941 436,926 410,904 389,876 367,847 350,812 339,771 327,729 321,681 321,627 L 321,0 142,0 142,851 C 142,874 142,898 142,923 141,948 141,971 140,994 139,1016 139,1035 138,1051 137,1067 137,1077 136,1082 L 306,1082 C 307,1079 307,1070 308,1055 309,1040 310,1024 311,1005 312,986 312,966 313,947 314,927 314,910 314,897 L 317,897 C 333,928 350,957 369,982 388,1007 410,1029 435,1047 460,1064 488,1078 521,1088 553,1097 590,1102 633,1102 715,1102 780,1086 828,1053 875,1020 908,968 927,897 L 930,897 C 946,928 964,957 984,982 1004,1007 1027,1029 1054,1047 1081,1064 1111,1078 1144,1088 1177,1097 1215,1102 1258,1102 1313,1102 1360,1095 1400,1080 1439,1065 1472,1043 1497,1012 1522,981 1541,942 1553,894 1565,845 1571,788 1571,721 L 1571,0 1393,0 1393,686 C 1393,739 1390,783 1383,818 1376,853 1365,882 1350,904 1334,925 1313,941 1288,950 1263,959 1232,963 1195,963 1157,963 1123,956 1092,942 1061,927 1035,906 1014,878 992,850 975,815 964,773 952,731 946,682 946,627 L 946,0 768,0 Z"/>
   <glyph unicode="i" horiz-adv-x="187" d="M 137,1312 L 137,1484 317,1484 317,1312 137,1312 Z M 137,0 L 137,1082 317,1082 317,0 137,0 Z"/>
   <glyph unicode="g" horiz-adv-x="927" d="M 548,-425 C 486,-425 431,-419 383,-406 335,-393 294,-375 260,-352 226,-328 198,-300 177,-267 156,-234 140,-198 131,-158 L 312,-132 C 324,-182 351,-220 392,-248 433,-274 486,-288 553,-288 594,-288 631,-282 664,-271 697,-260 726,-241 749,-217 772,-191 790,-159 803,-119 816,-79 822,-30 822,27 L 822,201 820,201 C 807,174 790,148 771,123 751,98 727,75 699,56 670,37 637,21 600,10 563,-2 520,-8 472,-8 403,-8 345,4 296,27 247,50 207,84 176,130 145,176 122,233 108,302 93,370 86,449 86,539 86,626 93,704 108,773 122,842 145,901 178,950 210,998 252,1035 304,1061 355,1086 418,1099 492,1099 569,1099 635,1082 692,1047 748,1012 791,962 822,897 L 824,897 C 824,914 825,932 826,953 827,974 828,993 829,1012 830,1030 831,1046 832,1059 833,1072 835,1080 836,1082 L 1007,1082 C 1006,1076 1006,1066 1005,1052 1004,1037 1004,1020 1003,1000 1002,980 1002,958 1002,934 1001,909 1001,884 1001,858 L 1001,31 C 1001,-120 964,-234 890,-311 815,-387 701,-425 548,-425 Z M 822,541 C 822,616 814,681 798,735 781,788 760,832 733,866 706,900 676,925 642,941 607,957 572,965 536,965 490,965 451,957 418,941 385,925 357,900 336,866 314,831 298,787 288,734 277,680 272,616 272,541 272,463 277,398 288,345 298,292 314,249 335,216 356,183 383,160 416,146 449,132 488,125 533,125 569,125 604,133 639,148 673,163 704,188 731,221 758,254 780,297 797,350 814,403 822,466 822,541 Z"/>
   <glyph unicode="e" horiz-adv-x="980" d="M 276,503 C 276,446 282,394 294,347 305,299 323,258 348,224 372,189 403,163 441,144 479,125 525,115 578,115 656,115 719,131 766,162 813,193 844,233 861,281 L 1019,236 C 1008,206 992,176 972,146 951,115 924,88 890,64 856,39 814,19 763,4 712,-12 650,-20 578,-20 418,-20 296,28 213,123 129,218 87,360 87,548 87,649 100,735 125,806 150,876 185,933 229,977 273,1021 324,1053 383,1073 442,1092 504,1102 571,1102 662,1102 738,1087 799,1058 860,1029 909,988 946,937 983,885 1009,824 1025,754 1040,684 1048,608 1048,527 L 1048,503 276,503 Z M 862,641 C 852,755 823,838 775,891 727,943 658,969 568,969 538,969 507,964 474,955 441,945 410,928 382,903 354,878 330,845 311,803 292,760 281,706 278,641 L 862,641 Z"/>
   <glyph unicode="d" horiz-adv-x="927" d="M 821,174 C 788,105 744,55 689,25 634,-5 565,-20 484,-20 347,-20 247,26 183,118 118,210 86,349 86,536 86,913 219,1102 484,1102 566,1102 634,1087 689,1057 744,1027 788,979 821,914 L 823,914 C 823,921 823,931 823,946 822,960 822,975 822,991 821,1006 821,1021 821,1035 821,1049 821,1059 821,1065 L 821,1484 1001,1484 1001,223 C 1001,197 1001,172 1002,148 1002,124 1002,102 1003,82 1004,62 1004,45 1005,31 1006,16 1006,6 1007,0 L 835,0 C 834,7 833,16 832,29 831,41 830,55 829,71 828,87 827,104 826,122 825,139 825,157 825,174 L 821,174 Z M 275,542 C 275,467 280,403 289,350 298,297 313,253 334,219 355,184 381,159 413,143 445,127 484,119 530,119 577,119 619,127 656,142 692,157 722,182 747,217 771,251 789,296 802,351 815,406 821,474 821,554 821,631 815,696 802,749 789,802 771,844 746,877 721,910 691,933 656,948 620,962 579,969 532,969 488,969 450,961 418,946 386,931 359,906 338,872 317,838 301,794 291,740 280,685 275,619 275,542 Z"/>
   <glyph unicode="c" horiz-adv-x="901" d="M 275,546 C 275,484 280,427 289,375 298,323 313,278 334,241 355,203 384,174 419,153 454,132 497,122 548,122 612,122 666,139 709,173 752,206 778,258 788,328 L 970,328 C 964,283 951,239 931,197 911,155 884,118 850,86 815,54 773,28 724,9 675,-10 618,-20 553,-20 468,-20 396,-6 337,23 278,52 230,91 193,142 156,192 129,251 112,320 95,388 87,462 87,542 87,615 93,679 105,735 117,790 134,839 156,881 177,922 203,957 232,986 261,1014 293,1037 328,1054 362,1071 398,1083 436,1091 474,1098 512,1102 551,1102 612,1102 666,1094 713,1077 760,1060 801,1038 836,1009 870,980 898,945 919,906 940,867 955,824 964,779 L 779,765 C 770,825 746,873 708,908 670,943 616,961 546,961 495,961 452,953 418,936 383,919 355,893 334,859 313,824 298,781 289,729 280,677 275,616 275,546 Z"/>
   <glyph unicode="a" horiz-adv-x="1060" d="M 414,-20 C 305,-20 224,9 169,66 114,124 87,203 87,303 87,375 101,434 128,480 155,526 190,562 234,588 277,614 327,632 383,642 439,652 496,657 554,657 L 797,657 797,717 C 797,762 792,800 783,832 774,863 759,889 740,908 721,928 697,942 668,951 639,960 604,965 565,965 530,965 499,963 471,958 443,953 419,944 398,931 377,918 361,900 348,878 335,855 327,827 323,793 L 135,810 C 142,853 154,892 173,928 192,963 218,994 253,1020 287,1046 330,1066 382,1081 433,1095 496,1102 569,1102 705,1102 807,1071 876,1009 945,946 979,856 979,738 L 979,272 C 979,219 986,179 1000,152 1014,125 1041,111 1080,111 1090,111 1100,112 1110,113 1120,114 1130,116 1139,118 L 1139,6 C 1116,1 1094,-3 1072,-6 1049,-9 1025,-10 1000,-10 966,-10 937,-5 913,4 888,13 868,26 853,45 838,63 826,86 818,113 810,140 805,171 803,207 L 797,207 C 778,172 757,141 734,113 711,85 684,61 653,42 622,22 588,7 549,-4 510,-15 465,-20 414,-20 Z M 455,115 C 512,115 563,125 606,146 649,167 684,194 713,226 741,259 762,294 776,332 790,371 797,408 797,443 L 797,531 600,531 C 556,531 514,528 475,522 435,517 400,506 370,489 340,472 316,449 299,418 281,388 272,349 272,300 272,241 288,195 320,163 351,131 396,115 455,115 Z"/>
   <glyph unicode="]" horiz-adv-x="424" d="M 16,-425 L 16,-296 249,-296 249,1355 16,1355 16,1484 423,1484 423,-425 16,-425 Z"/>
   <glyph unicode="[" horiz-adv-x="425" d="M 146,-425 L 146,1484 553,1484 553,1355 320,1355 320,-296 553,-296 553,-425 146,-425 Z"/>
   <glyph unicode="T" horiz-adv-x="1192" d="M 720,1253 L 720,0 530,0 530,1253 46,1253 46,1409 1204,1409 1204,1253 720,1253 Z"/>
   <glyph unicode="S" horiz-adv-x="1192" d="M 1272,389 C 1272,330 1261,275 1238,225 1215,175 1179,132 1131,96 1083,59 1023,31 950,11 877,-10 790,-20 690,-20 515,-20 378,11 280,72 182,133 120,222 93,338 L 278,375 C 287,338 302,305 321,275 340,245 367,219 400,198 433,176 473,159 522,147 571,135 629,129 697,129 754,129 806,134 853,144 900,153 941,168 975,188 1009,208 1036,234 1055,266 1074,297 1083,335 1083,379 1083,425 1073,462 1052,491 1031,520 1001,543 963,562 925,581 880,596 827,609 774,622 716,635 652,650 613,659 573,668 534,679 494,689 456,701 420,716 383,730 349,747 317,766 285,785 257,809 234,836 211,863 192,894 179,930 166,965 159,1006 159,1053 159,1120 173,1177 200,1225 227,1272 264,1311 312,1342 360,1373 417,1395 482,1409 547,1423 618,1430 694,1430 781,1430 856,1423 918,1410 980,1396 1032,1375 1075,1348 1118,1321 1152,1287 1178,1247 1203,1206 1224,1159 1239,1106 L 1051,1073 C 1042,1107 1028,1137 1011,1164 993,1191 970,1213 941,1231 912,1249 878,1263 837,1272 796,1281 747,1286 692,1286 627,1286 572,1280 528,1269 483,1257 448,1241 421,1221 394,1201 374,1178 363,1151 351,1124 345,1094 345,1063 345,1021 356,987 377,960 398,933 426,910 462,892 498,874 540,859 587,847 634,835 685,823 738,811 781,801 825,791 868,781 911,770 952,758 991,744 1030,729 1067,712 1102,693 1136,674 1166,650 1191,622 1216,594 1236,561 1251,523 1265,485 1272,440 1272,389 Z"/>
   <glyph unicode="R" horiz-adv-x="1244" d="M 1164,0 L 798,585 359,585 359,0 168,0 168,1409 831,1409 C 911,1409 982,1400 1044,1382 1105,1363 1157,1337 1199,1302 1241,1267 1273,1225 1295,1175 1317,1125 1328,1069 1328,1006 1328,961 1322,917 1309,874 1296,831 1275,791 1247,755 1219,719 1183,688 1140,662 1097,636 1045,618 984,607 L 1384,0 1164,0 Z M 1136,1004 C 1136,1047 1129,1084 1114,1115 1099,1146 1078,1173 1050,1194 1022,1215 988,1230 948,1241 908,1251 863,1256 812,1256 L 359,1256 359,736 820,736 C 875,736 922,743 962,757 1002,770 1035,789 1061,813 1086,837 1105,865 1118,898 1130,931 1136,966 1136,1004 Z"/>
   <glyph unicode="N" horiz-adv-x="1165" d="M 1082,0 L 328,1200 C 329,1167 331,1135 333,1103 334,1076 336,1047 337,1017 338,986 338,959 338,936 L 338,0 168,0 168,1409 390,1409 1152,201 C 1150,234 1148,266 1146,299 1145,327 1143,358 1142,391 1141,424 1140,455 1140,485 L 1140,1409 1312,1409 1312,0 1082,0 Z"/>
   <glyph unicode="L" horiz-adv-x="927" d="M 168,0 L 168,1409 359,1409 359,156 1071,156 1071,0 168,0 Z"/>
   <glyph unicode="K" horiz-adv-x="1191" d="M 1106,0 L 543,680 359,540 359,0 168,0 168,1409 359,1409 359,703 1038,1409 1263,1409 663,797 1343,0 1106,0 Z"/>
   <glyph unicode="E" horiz-adv-x="1138" d="M 168,0 L 168,1409 1237,1409 1237,1253 359,1253 359,801 1177,801 1177,647 359,647 359,156 1278,156 1278,0 168,0 Z"/>
   <glyph unicode="D" horiz-adv-x="1218" d="M 1381,719 C 1381,602 1363,498 1328,409 1293,319 1244,244 1183,184 1122,123 1049,78 966,47 882,16 792,0 695,0 L 168,0 168,1409 634,1409 C 743,1409 843,1396 935,1369 1026,1342 1105,1300 1171,1244 1237,1187 1289,1116 1326,1029 1363,942 1381,839 1381,719 Z M 1189,719 C 1189,814 1175,896 1148,964 1121,1031 1082,1087 1033,1130 984,1173 925,1205 856,1226 787,1246 712,1256 630,1256 L 359,1256 359,153 673,153 C 747,153 816,165 879,189 942,213 996,249 1042,296 1088,343 1124,402 1150,473 1176,544 1189,626 1189,719 Z"/>
   <glyph unicode="C" horiz-adv-x="1324" d="M 792,1274 C 712,1274 641,1261 580,1234 518,1207 466,1169 425,1120 383,1071 351,1011 330,942 309,873 298,796 298,711 298,626 310,549 333,479 356,408 389,348 432,297 475,246 527,207 590,179 652,151 722,137 800,137 855,137 905,144 950,159 995,173 1035,193 1072,219 1108,245 1140,276 1169,312 1198,347 1223,387 1245,430 L 1401,352 C 1376,299 1344,250 1307,205 1270,160 1226,120 1176,87 1125,54 1068,28 1005,9 941,-10 870,-20 791,-20 677,-20 577,-2 492,35 406,71 334,122 277,187 219,252 176,329 147,418 118,507 104,605 104,711 104,821 119,920 150,1009 180,1098 224,1173 283,1236 341,1298 413,1346 498,1380 583,1413 681,1430 790,1430 940,1430 1065,1401 1166,1342 1267,1283 1341,1196 1388,1081 L 1207,1021 C 1194,1054 1176,1086 1153,1117 1130,1147 1102,1174 1068,1197 1034,1220 994,1239 949,1253 903,1267 851,1274 792,1274 Z"/>
   <glyph unicode="A" horiz-adv-x="1377" d="M 1167,0 L 1006,412 364,412 202,0 4,0 579,1409 796,1409 1362,0 1167,0 Z M 768,1026 C 757,1053 747,1080 738,1107 728,1134 719,1159 712,1182 705,1204 699,1223 694,1238 689,1253 686,1262 685,1265 684,1262 681,1252 676,1237 671,1222 665,1203 658,1180 650,1157 641,1132 632,1105 622,1078 612,1051 602,1024 L 422,561 949,561 768,1026 Z"/>
   <glyph unicode="1" horiz-adv-x="927" d="M 156,0 L 156,153 515,153 515,1237 197,1010 197,1180 530,1409 696,1409 696,153 1039,153 1039,0 156,0 Z"/>
   <glyph unicode="+" horiz-adv-x="1033" d="M 671,608 L 671,180 524,180 524,608 100,608 100,754 524,754 524,1182 671,1182 671,754 1095,754 1095,608 671,608 Z"/>
   <glyph unicode=" " horiz-adv-x="556"/>
  </font>
 </defs>
 <defs class="TextShapeIndex">
  <g ooo:slide="id1" ooo:id-list="id3 id4 id5 id6 id7 id8 id9 id10 id11 id12 id13 id14 id15 id16 id17 id18 id19 id20"/>
 </defs>
 <defs class="EmbeddedBulletChars">
  <g id="bullet-char-template(57356)" transform="scale(0.00048828125,-0.00048828125)">
   <path d="M 580,1141 L 1163,571 580,0 -4,571 580,1141 Z"/>
  </g>
  <g id="bullet-char-template(57354)" transform="scale(0.00048828125,-0.00048828125)">
   <path d="M 8,1128 L 1137,1128 1137,0 8,0 8,1128 Z"/>
  </g>
  <g id="bullet-char-template(10146)" transform="scale(0.00048828125,-0.00048828125)">
   <path d="M 174,0 L 602,739 174,1481 1456,739 174,0 Z M 1358,739 L 309,1346 659,739 1358,739 Z"/>
  </g>
  <g id="bullet-char-template(10132)" transform="scale(0.00048828125,-0.00048828125)">
   <path d="M 2015,739 L 1276,0 717,0 1260,543 174,543 174,936 1260,936 717,1481 1274,1481 2015,739 Z"/>
  </g>
  <g id="bullet-char-template(10007)" transform="scale(0.00048828125,-0.00048828125)">
   <path d="M 0,-2 C -7,14 -16,27 -25,37 L 356,567 C 262,823 215,952 215,954 215,979 228,992 255,992 264,992 276,990 289,987 310,991 331,999 354,1012 L 381,999 492,748 772,1049 836,1024 860,1049 C 881,1039 901,1025 922,1006 886,937 835,863 770,784 769,783 710,716 594,584 L 774,223 C 774,196 753,168 711,139 L 727,119 C 717,90 699,76 672,76 641,76 570,178 457,381 L 164,-76 C 142,-110 111,-127 72,-127 30,-127 9,-110 8,-76 1,-67 -2,-52 -2,-32 -2,-23 -1,-13 0,-2 Z"/>
  </g>
  <g id="bullet-char-template(10004)" transform="scale(0.00048828125,-0.00048828125)">
   <path d="M 285,-33 C 182,-33 111,30 74,156 52,228 41,333 41,471 41,549 55,616 82,672 116,743 169,778 240,778 293,778 328,747 346,684 L 369,508 C 377,444 397,411 428,410 L 1163,1116 C 1174,1127 1196,1133 1229,1133 1271,1133 1292,1118 1292,1087 L 1292,965 C 1292,929 1282,901 1262,881 L 442,47 C 390,-6 338,-33 285,-33 Z"/>
  </g>
  <g id="bullet-char-template(9679)" transform="scale(0.00048828125,-0.00048828125)">
   <path d="M 813,0 C 632,0 489,54 383,161 276,268 223,411 223,592 223,773 276,916 383,1023 489,1130 632,1184 813,1184 992,1184 1136,1130 1245,1023 1353,916 1407,772 1407,592 1407,412 1353,268 1245,161 1136,54 992,0 813,0 Z"/>
  </g>
  <g id="bullet-char-template(8226)" transform="scale(0.00048828125,-0.00048828125)">
   <path d="M 346,457 C 273,457 209,483 155,535 101,586 74,649 74,723 74,796 101,859 155,911 209,963 273,989 346,989 419,989 480,963 531,910 582,859 608,796 608,723 608,648 583,586 532,535 482,483 420,457 346,457 Z"/>
  </g>
  <g id="bullet-char-template(8211)" transform="scale(0.00048828125,-0.00048828125)">
   <path d="M -4,459 L 1135,459 1135,606 -4,606 -4,459 Z"/>
  </g>
 </defs>
 <defs class="TextEmbeddedBitmaps"/>
 <g class="SlideGroup">
  <g>
   <g id="id1" class="Slide" clip-path="url(#presentation_clip_path)">
    <g class="Page">
     <g class="com.sun.star.drawing.LineShape">
      <g id="id3">
       <path fill="none" stroke="rgb(0,0,0)" stroke-width="51" stroke-linejoin="round" d="M 2864,3663 L 2864,10463"/>
      </g>
     </g>
     <g class="com.sun.star.drawing.LineShape">
      <g id="id4">
       <path fill="none" stroke="rgb(0,0,0)" stroke-width="51" stroke-linejoin="round" d="M 7938,3638 L 7938,10493"/>
      </g>
     </g>
     <g class="com.sun.star.drawing.TextShape">
      <g id="id5">
       <text class="TextShape"><tspan class="TextParagraph" font-family="Arial, sans-serif" font-size="353px" font-weight="400"><tspan class="TextPosition" x="2273" y="3504"/><tspan class="TextPosition" x="2273" y="3504"><tspan fill="rgb(0,0,0)" stroke="none">Sender</tspan></tspan></tspan></text>
      </g>
     </g>
     <g class="com.sun.star.drawing.TextShape">
      <g id="id6">
       <text class="TextShape"><tspan class="TextParagraph" font-family="Arial, sans-serif" font-size="353px" font-weight="400"><tspan class="TextPosition" x="7273" y="3506"/><tspan class="TextPosition" x="7273" y="3506"><tspan fill="rgb(0,0,0)" stroke="none">Receiver</tspan></tspan></tspan></text>
      </g>
     </g>
     <g class="com.sun.star.drawing.TextShape">
      <g id="id7">
       <text class="TextShape"><tspan class="TextParagraph" font-family="Arial, sans-serif" font-size="282px" font-weight="400"><tspan class="TextPosition" x="1720" y="6670"/><tspan class="TextPosition" x="1720" y="6670"><tspan fill="rgb(0,0,0)" stroke="none">Timeout</tspan></tspan></tspan></text>
      </g>
     </g>
     <g class="com.sun.star.drawing.LineShape">
      <g id="id8">
       <path fill="none" stroke="rgb(0,0,0)" d="M 2841,6557 L 7688,7749"/>
       <path fill="rgb(0,0,0)" stroke="none" d="M 7900,7801 L 7697,7673 7660,7820 7900,7801 Z"/>
      </g>
     </g>
     <g class="com.sun.star.drawing.TextShape">
      <g id="id9">
       <text class="TextShape"><tspan class="TextParagraph" font-family="Arial, sans-serif" font-size="353px" font-weight="400"><tspan class="TextPosition" x="4519" y="11132"/><tspan class="TextPosition" x="4519" y="11132"><tspan fill="rgb(0,0,0)" stroke="none">Late ACK</tspan></tspan></tspan></text>
      </g>
     </g>
     <g class="com.sun.star.drawing.LineShape">
      <g id="id10">
       <path fill="none" stroke="rgb(0,0,0)" d="M 7918,7839 L 3149,9721"/>
       <path fill="rgb(0,0,0)" stroke="none" d="M 2946,9801 L 3186,9788 3130,9647 2946,9801 Z"/>
      </g>
     </g>
     <g class="com.sun.star.drawing.TextShape">
      <g id="id11">
       <text class="TextShape"><tspan class="TextParagraph" font-family="Arial, sans-serif" font-size="282px" font-weight="400"><tspan class="TextPosition" x="4125" y="4165"/><tspan class="TextPosition" x="4125" y="4165"><tspan fill="rgb(0,0,0)" stroke="none">Data[N]</tspan></tspan></tspan></text>
      </g>
     </g>
     <g class="com.sun.star.drawing.TextShape">
      <g id="id12">
       <text class="TextShape"><tspan class="TextParagraph" font-family="Arial, sans-serif" font-size="282px" font-weight="400"><tspan class="TextPosition" x="3126" y="6566"/><tspan class="TextPosition" x="3126" y="6566"><tspan fill="rgb(0,0,0)" stroke="none">Data[N]</tspan></tspan></tspan></text>
      </g>
     </g>
     <g class="com.sun.star.drawing.TextShape">
      <g id="id13">
       <text class="TextShape"><tspan class="TextParagraph" font-family="Arial, sans-serif" font-size="282px" font-weight="400"><tspan class="TextPosition" x="5327" y="6067"/><tspan class="TextPosition" x="5327" y="6067"><tspan fill="rgb(0,0,0)" stroke="none">ACK[N]</tspan></tspan></tspan></text>
      </g>
     </g>
     <g class="com.sun.star.drawing.LineShape">
      <g id="id14">
       <path fill="none" stroke="rgb(0,0,0)" d="M 2841,3957 L 7692,5432"/>
       <path fill="rgb(0,0,0)" stroke="none" d="M 7900,5495 L 7704,5356 7660,5501 7900,5495 Z"/>
      </g>
     </g>
     <g class="com.sun.star.drawing.LineShape">
      <g id="id15">
       <path fill="none" stroke="rgb(0,0,0)" d="M 7918,5523 L 3090,7441"/>
       <path fill="rgb(0,0,0)" stroke="none" d="M 2888,7521 L 3128,7507 3072,7366 2888,7521 Z"/>
      </g>
     </g>
     <g class="com.sun.star.drawing.TextShape">
      <g id="id16">
       <text class="TextShape"><tspan class="TextParagraph" font-family="Arial, sans-serif" font-size="282px" font-weight="400"><tspan class="TextPosition" x="4227" y="8868"/><tspan class="TextPosition" x="4227" y="8868"><tspan fill="rgb(0,0,0)" stroke="none">ACK[N]</tspan></tspan></tspan></text>
      </g>
     </g>
     <g class="com.sun.star.drawing.LineShape">
      <g id="id17">
       <path fill="none" stroke="rgb(0,0,0)" d="M 2840,7556 L 7666,8706"/>
       <path fill="rgb(0,0,0)" stroke="none" d="M 7878,8756 L 7674,8629 7639,8777 7878,8756 Z"/>
      </g>
     </g>
     <g class="com.sun.star.drawing.TextShape">
      <g id="id18">
       <text class="TextShape"><tspan class="TextParagraph" font-family="Arial, sans-serif" font-size="282px" font-weight="400"><tspan class="TextPosition" x="3827" y="7767"/><tspan class="TextPosition" x="3827" y="7767"><tspan fill="rgb(0,0,0)" stroke="none">Data[N+1]</tspan></tspan></tspan></text>
      </g>
     </g>
     <g class="com.sun.star.drawing.TextShape">
      <g id="id19">
       <text class="TextShape"><tspan class="TextParagraph" font-family="Arial, sans-serif" font-size="282px" font-weight="400"><tspan class="TextPosition" x="1420" y="8471"/><tspan class="TextPosition" x="1420" y="8471"><tspan fill="rgb(0,0,0)" stroke="none">Expecting</tspan></tspan></tspan><tspan class="TextParagraph" font-family="Arial, sans-serif" font-size="282px" font-weight="400"><tspan class="TextPosition" x="1420" y="8793"/><tspan class="TextPosition" x="1420" y="8793"><tspan fill="rgb(0,0,0)" stroke="none">ACK[N+1]</tspan></tspan></tspan></text>
      </g>
     </g>
     <g class="com.sun.star.drawing.CustomShape">
      <g id="id20">
       <path fill="none" stroke="rgb(255,255,255)" d="M 5580,11455 L 1000,11455 1000,2962 10160,2962 10160,11455 5580,11455 Z"/>
      </g>
     </g>
    </g>
   </g>
  </g>
 </g>
</svg>