<?xml version="1.0" encoding="UTF-8"?>

<svg version="1.2" baseProfile="tiny" width="105.33mm" height="121.62mm" viewBox="2188 4782 10533 12162" preserveAspectRatio="xMidYMid" fill-rule="evenodd" stroke-width="28.222" stroke-linejoin="round" xmlns="http://www.w3.org/2000/svg" xmlns:ooo="http://xml.openoffice.org/svg/export" xmlns:xlink="http://www.w3.org/1999/xlink" xml:space="preserve">
 <defs class="ClipPathGroup">
  <clipPath id="presentation_clip_path" clipPathUnits="userSpaceOnUse">
   <rect x="2188" y="4782" width="10533" height="12162"/>
  </clipPath>
 </defs>
 <defs>
  <font id="EmbeddedFont_1" horiz-adv-x="2048">
   <font-face font-family="Arial embedded" units-per-em="2048" font-weight="normal" font-style="normal" ascent="1852" descent="450"/>
   <missing-glyph horiz-adv-x="2048" d="M 0,0 L 2047,0 2047,2047 0,2047 0,0 Z"/>
   <glyph unicode="y" horiz-adv-x="1033" d="M 604,1 C 579,-64 553,-123 527,-175 500,-227 471,-272 438,-309 405,-346 369,-374 329,-394 289,-413 243,-423 191,-423 168,-423 147,-423 128,-423 109,-423 88,-420 67,-414 L 67,-279 C 80,-282 94,-284 110,-284 126,-284 140,-284 151,-284 204,-284 253,-264 298,-225 343,-186 383,-123 417,-37 L 434,6 5,1082 197,1082 425,484 C 432,466 440,442 451,412 461,382 471,352 482,322 492,292 501,265 509,241 517,217 522,202 523,196 525,203 530,218 538,240 545,261 554,285 564,312 573,339 583,366 593,393 603,420 611,444 618,464 L 830,1082 1020,1082 604,1 Z"/>
   <glyph unicode="v" horiz-adv-x="1033" d="M 613,0 L 400,0 7,1082 199,1082 437,378 C 442,363 447,346 454,325 460,304 466,282 473,259 480,236 486,215 492,194 497,173 502,155 506,141 510,155 515,173 522,194 528,215 534,236 541,258 548,280 555,302 562,323 569,344 575,361 580,376 L 826,1082 1017,1082 613,0 Z"/>
   <glyph unicode="u" horiz-adv-x="874" d="M 314,1082 L 314,396 C 314,343 318,299 326,264 333,229 346,200 363,179 380,157 403,142 432,133 460,124 495,119 537,119 580,119 618,127 653,142 687,157 716,178 741,207 765,235 784,270 797,312 810,353 817,401 817,455 L 817,1082 997,1082 997,231 C 997,208 997,185 998,160 998,135 998,111 999,89 1000,66 1000,47 1001,31 1002,15 1002,5 1003,0 L 833,0 C 832,3 832,12 831,27 830,42 830,59 829,78 828,97 827,116 826,136 825,155 825,172 825,185 L 822,185 C 805,154 786,125 765,100 744,75 720,53 693,36 666,18 634,4 599,-6 564,-15 523,-20 476,-20 416,-20 364,-13 321,2 278,17 242,39 214,70 186,101 166,140 153,188 140,236 133,294 133,361 L 133,1082 314,1082 Z"/>
   <glyph unicode="t" horiz-adv-x="531" d="M 554,8 C 527,1 499,-5 471,-10 442,-14 409,-16 372,-16 228,-16 156,66 156,229 L 156,951 31,951 31,1082 163,1082 216,1324 336,1324 336,1082 536,1082 536,951 336,951 336,268 C 336,216 345,180 362,159 379,138 408,127 450,127 467,127 484,128 501,131 517,134 535,137 554,141 L 554,8 Z"/>
   <glyph unicode="s" horiz-adv-x="901" d="M 950,299 C 950,248 940,203 921,164 901,124 872,91 835,64 798,37 752,16 698,2 643,-13 581,-20 511,-20 448,-20 392,-15 342,-6 291,4 247,20 209,41 171,62 139,91 114,126 88,161 69,203 57,254 L 216,285 C 231,227 263,185 311,158 359,131 426,117 511,117 550,117 585,120 618,125 650,130 678,140 701,153 724,166 743,183 756,205 769,226 775,253 775,285 775,318 767,345 752,366 737,387 715,404 688,418 661,432 628,444 589,455 550,465 507,476 460,489 417,500 374,513 331,527 288,541 250,560 216,583 181,606 153,634 132,668 111,702 100,745 100,796 100,895 135,970 206,1022 276,1073 378,1099 513,1099 632,1099 727,1078 798,1036 868,994 912,927 931,834 L 769,814 C 763,842 752,866 736,885 720,904 701,919 678,931 655,942 630,951 602,956 573,961 544,963 513,963 432,963 372,951 333,926 294,901 275,864 275,814 275,785 282,761 297,742 311,723 331,707 357,694 382,681 413,669 449,660 485,650 525,640 568,629 597,622 626,614 656,606 686,597 715,587 744,576 772,564 799,550 824,535 849,519 870,500 889,478 908,456 923,430 934,401 945,372 950,338 950,299 Z"/>
   <glyph unicode="r" horiz-adv-x="530" d="M 142,0 L 142,830 C 142,853 142,876 142,900 141,923 141,946 140,968 139,990 139,1011 138,1030 137,1049 137,1067 136,1082 L 306,1082 C 307,1067 308,1049 309,1030 310,1010 311,990 312,969 313,948 313,929 314,910 314,891 314,874 314,861 L 318,861 C 331,902 344,938 359,969 373,999 390,1024 409,1044 428,1063 451,1078 478,1088 505,1097 537,1102 575,1102 590,1102 604,1101 617,1099 630,1096 641,1094 648,1092 L 648,927 C 636,930 622,933 606,935 590,936 572,937 552,937 511,937 476,928 447,909 418,890 394,865 376,832 357,799 344,759 335,714 326,668 322,618 322,564 L 322,0 142,0 Z"/>
   <glyph unicode="p" horiz-adv-x="953" d="M 1053,546 C 1053,464 1046,388 1033,319 1020,250 998,190 967,140 936,90 895,51 844,23 793,-6 730,-20 655,-20 578,-20 510,-5 452,24 394,53 350,101 319,168 L 314,168 C 315,167 315,161 316,150 316,139 316,126 317,110 317,94 317,76 318,57 318,37 318,17 318,-2 L 318,-425 138,-425 138,861 C 138,887 138,912 138,936 137,960 137,982 136,1002 135,1021 135,1038 134,1052 133,1066 133,1076 132,1082 L 306,1082 C 307,1080 308,1073 309,1061 310,1049 311,1035 312,1018 313,1001 314,982 315,963 316,944 316,925 316,908 L 320,908 C 337,943 356,972 377,997 398,1021 423,1041 450,1057 477,1072 508,1084 542,1091 575,1098 613,1101 655,1101 730,1101 793,1088 844,1061 895,1034 936,997 967,949 998,900 1020,842 1033,774 1046,705 1053,629 1053,546 Z M 864,542 C 864,609 860,668 852,720 844,772 830,816 811,852 791,888 765,915 732,934 699,953 658,962 609,962 569,962 531,956 496,945 461,934 430,912 404,880 377,848 356,804 341,748 326,691 318,618 318,528 318,451 324,387 337,334 350,281 368,238 393,205 417,172 447,149 483,135 519,120 560,113 607,113 657,113 699,123 732,142 765,161 791,189 811,226 830,263 844,308 852,361 860,414 864,474 864,542 Z"/>
   <glyph unicode="o" horiz-adv-x="980" d="M 1053,542 C 1053,353 1011,212 928,119 845,26 724,-20 565,-20 490,-20 422,-9 363,14 304,37 254,71 213,118 172,165 140,223 119,294 97,364 86,447 86,542 86,915 248,1102 571,1102 655,1102 728,1090 789,1067 850,1044 900,1009 939,962 978,915 1006,857 1025,787 1044,717 1053,635 1053,542 Z M 864,542 C 864,626 858,695 845,750 832,805 813,848 788,881 763,914 732,937 696,950 660,963 619,969 574,969 528,969 487,962 450,949 413,935 381,912 355,879 329,846 309,802 296,747 282,692 275,624 275,542 275,458 282,389 297,334 312,279 332,235 358,202 383,169 414,146 449,133 484,120 522,113 563,113 609,113 651,120 688,133 725,146 757,168 783,201 809,234 829,278 843,333 857,388 864,458 864,542 Z"/>
   <glyph unicode="n" horiz-adv-x="874" d="M 825,0 L 825,686 C 825,739 821,783 814,818 806,853 793,882 776,904 759,925 736,941 708,950 679,959 644,963 602,963 559,963 521,956 487,941 452,926 423,904 399,876 374,847 355,812 342,771 329,729 322,681 322,627 L 322,0 142,0 142,851 C 142,874 142,898 142,923 141,948 141,971 140,994 139,1016 139,1035 138,1051 137,1067 137,1077 136,1082 L 306,1082 C 307,1079 307,1070 308,1055 309,1040 310,1024 311,1005 312,986 312,966 313,947 314,927 314,910 314,897 L 317,897 C 334,928 353,957 374,982 395,1007 419,1029 446,1047 473,1064 505,1078 540,1088 575,1097 616,1102 663,1102 723,1102 775,1095 818,1080 861,1065 897,1043 925,1012 953,981 974,942 987,894 1000,845 1006,788 1006,721 L 1006,0 825,0 Z"/>
   <glyph unicode="m" horiz-adv-x="1457" d="M 768,0 L 768,686 C 768,739 765,783 758,818 751,853 740,882 725,904 709,925 688,941 663,950 638,959 607,963 570,963 532,963 498,956 467,941 436,926 410,904 389,876 367,847 350,812 339,771 327,729 321,681 321,627 L 321,0 142,0 142,851 C 142,874 142,898 142,923 141,948 141,971 140,994 139,1016 139,1035 138,1051 137,1067 137,1077 136,1082 L 306,1082 C 307,1079 307,1070 308,1055 309,1040 310,1024 311,1005 312,986 312,966 313,947 314,927 314,910 314,897 L 317,897 C 333,928 350,957 369,982 388,1007 410,1029 435,1047 460,1064 488,1078 521,1088 553,1097 590,1102 633,1102 715,1102 780,1086 828,1053 875,1020 908,968 927,897 L 930,897 C 946,928 964,957 984,982 1004,1007 1027,1029 1054,1047 1081,1064 1111,1078 1144,1088 1177,1097 1215,1102 1258,1102 1313,1102 1360,1095 1400,1080 1439,1065 1472,1043 1497,1012 1522,981 1541,942 1553,894 1565,845 1571,788 1571,721 L 1571,0 1393,0 1393,686 C 1393,739 1390,783 1383,818 1376,853 1365,882 1350,904 1334,925 1313,941 1288,950 1263,959 1232,963 1195,963 1157,963 1123,956 1092,942 1061,927 1035,906 1014,878 992,850 975,815 964,773 952,731 946,682 946,627 L 946,0 768,0 Z"/>
   <glyph unicode="l" horiz-adv-x="187" d="M 138,0 L 138,1484 318,1484 318,0 138,0 Z"/>
   <glyph unicode="k" horiz-adv-x="901" d="M 816,0 L 450,494 318,385 318,0 138,0 138,1484 318,1484 318,557 793,1082 1004,1082 565,617 1027,0 816,0 Z"/>
   <glyph unicode="i" horiz-adv-x="187" d="M 137,1312 L 137,1484 317,1484 317,1312 137,1312 Z M 137,0 L 137,1082 317,1082 317,0 137,0 Z"/>
   <glyph unicode="h" horiz-adv-x="874" d="M 317,897 C 337,934 359,965 382,991 405,1016 431,1037 459,1054 487,1071 518,1083 551,1091 584,1098 622,1102 663,1102 732,1102 789,1093 834,1074 878,1055 913,1029 939,996 964,962 982,922 992,875 1001,828 1006,777 1006,721 L 1006,0 825,0 825,686 C 825,732 822,772 817,807 811,842 800,871 784,894 768,917 745,934 716,946 687,957 649,963 602,963 559,963 521,955 487,940 452,925 423,903 399,875 374,847 355,813 342,773 329,733 322,688 322,638 L 322,0 142,0 142,1484 322,1484 322,1098 C 322,1076 322,1054 321,1032 320,1010 320,990 319,971 318,952 317,937 316,924 315,911 315,902 314,897 L 317,897 Z"/>
   <glyph unicode="g" horiz-adv-x="927" d="M 548,-425 C 486,-425 431,-419 383,-406 335,-393 294,-375 260,-352 226,-328 198,-300 177,-267 156,-234 140,-198 131,-158 L 312,-132 C 324,-182 351,-220 392,-248 433,-274 486,-288 553,-288 594,-288 631,-282 664,-271 697,-260 726,-241 749,-217 772,-191 790,-159 803,-119 816,-79 822,-30 822,27 L 822,201 820,201 C 807,174 790,148 771,123 751,98 727,75 699,56 670,37 637,21 600,10 563,-2 520,-8 472,-8 403,-8 345,4 296,27 247,50 207,84 176,130 145,176 122,233 108,302 93,370 86,449 86,539 86,626 93,704 108,773 122,842 145,901 178,950 210,998 252,1035 304,1061 355,1086 418,1099 492,1099 569,1099 635,1082 692,1047 748,1012 791,962 822,897 L 824,897 C 824,914 825,932 826,953 827,974 828,993 829,1012 830,1030 831,1046 832,1059 833,1072 835,1080 836,1082 L 1007,1082 C 1006,1076 1006,1066 1005,1052 1004,1037 1004,1020 1003,1000 1002,980 1002,958 1002,934 1001,909 1001,884 1001,858 L 1001,31 C 1001,-120 964,-234 890,-311 815,-387 701,-425 548,-425 Z M 822,541 C 822,616 814,681 798,735 781,788 760,832 733,866 706,900 676,925 642,941 607,957 572,965 536,965 490,965 451,957 418,941 385,925 357,900 336,866 314,831 298,787 288,734 277,680 272,616 272,541 272,463 277,398 288,345 298,292 314,249 335,216 356,183 383,160 416,146 449,132 488,125 533,125 569,125 604,133 639,148 673,163 704,188 731,221 758,254 780,297 797,350 814,403 822,466 822,541 Z"/>
   <glyph unicode="e" horiz-adv-x="980" d="M 276,503 C 276,446 282,394 294,347 305,299 323,258 348,224 372,189 403,163 441,144 479,125 525,115 578,115 656,115 719,131 766,162 813,193 844,233 861,281 L 1019,236 C 1008,206 992,176 972,146 951,115 924,88 890,64 856,39 814,19 763,4 712,-12 650,-20 578,-20 418,-20 296,28 213,123 129,218 87,360 87,548 87,649 100,735 125,806 150,876 185,933 229,977 273,1021 324,1053 383,1073 442,1092 504,1102 571,1102 662,1102 738,1087 799,1058 860,1029 909,988 946,937 983,885 1009,824 1025,754 1040,684 1048,608 1048,527 L 1048,503 276,503 Z M 862,641 C 852,755 823,838 775,891 727,943 658,969 568,969 538,969 507,964 474,955 441,945 410,928 382,903 354,878 330,845 311,803 292,760 281,706 278,641 L 862,641 Z"/>
   <glyph unicode="d" horiz-adv-x="927" d="M 821,174 C 788,105 744,55 689,25 634,-5 565,-20 484,-20 347,-20 247,26 183,118 118,210 86,349 86,536 86,913 219,1102 484,1102 566,1102 634,1087 689,1057 744,1027 788,979 821,914 L 823,914 C 823,921 823,931 823,946 822,960 822,975 822,991 821,1006 821,1021 821,1035 821,1049 821,1059 821,1065 L 821,1484 1001,1484 1001,223 C 1001,197 1001,172 1002,148 1002,124 1002,102 1003,82 1004,62 1004,45 1005,31 1006,16 1006,6 1007,0 L 835,0 C 834,7 833,16 832,29 831,41 830,55 829,71 828,87 827,104 826,122 825,139 825,157 825,174 L 821,174 Z M 275,542 C 275,467 280,403 289,350 298,297 313,253 334,219 355,184 381,159 413,143 445,127 484,119 530,119 577,119 619,127 656,142 692,157 722,182 747,217 771,251 789,296 802,351 815,406 821,474 821,554 821,631 815,696 802,749 789,802 771,844 746,877 721,910 691,933 656,948 620,962 579,969 532,969 488,969 450,961 418,946 386,931 359,906 338,872 317,838 301,794 291,740 280,685 275,619 275,542 Z"/>
   <glyph unicode="c" horiz-adv-x="901" d="M 275,546 C 275,484 280,427 289,375 298,323 313,278 334,241 355,203 384,174 419,153 454,132 497,122 548,122 612,122 666,139 709,173 752,206 778,258 788,328 L 970,328 C 964,283 951,239 931,197 911,155 884,118 850,86 815,54 773,28 724,9 675,-10 618,-20 553,-20 468,-20 396,-6 337,23 278,52 230,91 193,142 156,192 129,251 112,320 95,388 87,462 87,542 87,615 93,679 105,735 117,790 134,839 156,881 177,922 203,957 232,986 261,1014 293,1037 328,1054 362,1071 398,1083 436,1091 474,1098 512,1102 551,1102 612,1102 666,1094 713,1077 760,1060 801,1038 836,1009 870,980 898,945 919,906 940,867 955,824 964,779 L 779,765 C 770,825 746,873 708,908 670,943 616,961 546,961 495,961 452,953 418,936 383,919 355,893 334,859 313,824 298,781 289,729 280,677 275,616 275,546 Z"/>
   <glyph unicode="b" horiz-adv-x="953" d="M 1053,546 C 1053,169 920,-20 655,-20 573,-20 505,-5 451,25 396,54 352,102 318,168 L 316,168 C 316,151 316,133 315,114 314,95 313,78 312,62 311,46 310,32 309,21 308,10 307,3 306,0 L 132,0 C 133,6 133,16 134,31 135,45 135,62 136,82 137,102 137,124 138,148 138,172 138,197 138,223 L 138,1484 318,1484 318,1061 C 318,1041 318,1022 318,1004 317,985 317,969 316,955 315,938 315,923 314,908 L 318,908 C 351,977 396,1027 451,1057 506,1087 574,1102 655,1102 792,1102 892,1056 957,964 1021,872 1053,733 1053,546 Z M 864,540 C 864,615 859,679 850,732 841,785 826,829 805,864 784,898 758,923 726,939 694,955 655,963 609,963 562,963 520,955 484,940 447,925 417,900 393,866 368,832 350,787 337,732 324,677 318,609 318,529 318,452 324,387 337,334 350,281 368,239 393,206 417,173 447,149 483,135 519,120 560,113 607,113 651,113 689,121 721,136 753,151 780,176 801,210 822,244 838,288 849,343 859,397 864,463 864,540 Z"/>
   <glyph unicode="a" horiz-adv-x="1060" d="M 414,-20 C 305,-20 224,9 169,66 114,124 87,203 87,303 87,375 101,434 128,480 155,526 190,562 234,588 277,614 327,632 383,642 439,652 496,657 554,657 L 797,657 797,717 C 797,762 792,800 783,832 774,863 759,889 740,908 721,928 697,942 668,951 639,960 604,965 565,965 530,965 499,963 471,958 443,953 419,944 398,931 377,918 361,900 348,878 335,855 327,827 323,793 L 135,810 C 142,853 154,892 173,928 192,963 218,994 253,1020 287,1046 330,1066 382,1081 433,1095 496,1102 569,1102 705,1102 807,1071 876,1009 945,946 979,856 979,738 L 979,272 C 979,219 986,179 1000,152 1014,125 1041,111 1080,111 1090,111 1100,112 1110,113 1120,114 1130,116 1139,118 L 1139,6 C 1116,1 1094,-3 1072,-6 1049,-9 1025,-10 1000,-10 966,-10 937,-5 913,4 888,13 868,26 853,45 838,63 826,86 818,113 810,140 805,171 803,207 L 797,207 C 778,172 757,141 734,113 711,85 684,61 653,42 622,22 588,7 549,-4 510,-15 465,-20 414,-20 Z M 455,115 C 512,115 563,125 606,146 649,167 684,194 713,226 741,259 762,294 776,332 790,371 797,408 797,443 L 797,531 600,531 C 556,531 514,528 475,522 435,517 400,506 370,489 340,472 316,449 299,418 281,388 272,349 272,300 272,241 288,195 320,163 351,131 396,115 455,115 Z"/>
   <glyph unicode="]" horiz-adv-x="424" d="M 16,-425 L 16,-296 249,-296 249,1355 16,1355 16,1484 423,1484 423,-425 16,-425 Z"/>
   <glyph unicode="[" horiz-adv-x="425" d="M 146,-425 L 146,1484 553,1484 553,1355 320,1355 320,-296 553,-296 553,-425 146,-425 Z"/>
   <glyph unicode="U" horiz-adv-x="1192" d="M 731,-20 C 654,-20 580,-10 511,11 442,32 381,64 329,108 276,151 235,207 204,274 173,341 158,420 158,512 L 158,1409 349,1409 349,528 C 349,457 359,396 378,347 397,297 423,256 457,225 491,194 531,171 578,157 624,142 675,135 730,135 785,135 836,142 885,157 934,172 976,195 1013,227 1050,259 1079,301 1100,353 1121,404 1131,467 1131,541 L 1131,1409 1321,1409 1321,530 C 1321,436 1306,355 1275,286 1244,217 1201,159 1148,114 1095,69 1032,35 961,13 889,-9 812,-20 731,-20 Z"/>
   <glyph unicode="T" horiz-adv-x="1192" d="M 720,1253 L 720,0 530,0 530,1253 46,1253 46,1409 1204,1409 1204,1253 720,1253 Z"/>
   <glyph unicode="S" horiz-adv-x="1192" d="M 1272,389 C 1272,330 1261,275 1238,225 1215,175 1179,132 1131,96 1083,59 1023,31 950,11 877,-10 790,-20 690,-20 515,-20 378,11 280,72 182,133 120,222 93,338 L 278,375 C 287,338 302,305 321,275 340,245 367,219 400,198 433,176 473,159 522,147 571,135 629,129 697,129 754,129 806,134 853,144 900,153 941,168 975,188 1009,208 1036,234 1055,266 1074,297 1083,335 1083,379 1083,425 1073,462 1052,491 1031,520 1001,543 963,562 925,581 880,596 827,609 774,622 716,635 652,650 613,659 573,668 534,679 494,689 456,701 420,716 383,730 349,747 317,766 285,785 257,809 234,836 211,863 192,894 179,930 166,965 159,1006 159,1053 159,1120 173,1177 200,1225 227,1272 264,1311 312,1342 360,1373 417,1395 482,1409 547,1423 618,1430 694,1430 781,1430 856,1423 918,1410 980,1396 1032,1375 1075,1348 1118,1321 1152,1287 1178,1247 1203,1206 1224,1159 1239,1106 L 1051,1073 C 1042,1107 1028,1137 1011,1164 993,1191 970,1213 941,1231 912,1249 878,1263 837,1272 796,1281 747,1286 692,1286 627,1286 572,1280 528,1269 483,1257 448,1241 421,1221 394,1201 374,1178 363,1151 351,1124 345,1094 345,1063 345,1021 356,987 377,960 398,933 426,910 462,892 498,874 540,859 587,847 634,835 685,823 738,811 781,801 825,791 868,781 911,770 952,758 991,744 1030,729 1067,712 1102,693 1136,674 1166,650 1191,622 1216,594 1236,561 1251,523 1265,485 1272,440 1272,389 Z"/>
   <glyph unicode="O" horiz-adv-x="1430" d="M 1495,711 C 1495,601 1479,501 1448,411 1416,321 1370,244 1310,180 1250,116 1177,67 1090,32 1003,-3 905,-20 795,-20 679,-20 577,-2 490,35 403,71 330,122 272,187 214,252 170,329 141,418 112,507 97,605 97,711 97,821 112,920 143,1009 174,1098 219,1173 278,1236 337,1298 411,1346 498,1380 585,1413 684,1430 797,1430 909,1430 1009,1413 1096,1379 1183,1345 1256,1297 1315,1234 1374,1171 1418,1096 1449,1007 1480,918 1495,820 1495,711 Z M 1300,711 C 1300,796 1289,873 1268,942 1246,1011 1214,1071 1172,1120 1129,1169 1077,1207 1014,1234 951,1261 879,1274 797,1274 713,1274 639,1261 576,1234 513,1207 460,1169 418,1120 375,1071 344,1011 323,942 302,873 291,796 291,711 291,626 302,549 324,479 345,408 377,348 420,297 462,246 515,206 578,178 641,149 713,135 795,135 883,135 959,149 1023,178 1086,207 1139,247 1180,298 1221,349 1251,409 1271,480 1290,551 1300,628 1300,711 Z"/>
   <glyph unicode="M" horiz-adv-x="1377" d="M 1366,0 L 1366,940 C 1366,974 1366,1009 1367,1044 1368,1079 1369,1112 1370,1141 1371,1175 1373,1208 1375,1240 1366,1206 1356,1172 1346,1139 1337,1110 1328,1080 1318,1048 1307,1015 1297,986 1287,960 L 923,0 789,0 420,960 C 416,970 412,982 408,995 403,1008 399,1023 394,1038 389,1053 384,1068 379,1084 374,1099 369,1115 364,1130 353,1165 342,1202 331,1240 332,1203 333,1166 334,1129 335,1098 336,1065 337,1031 338,996 338,966 338,940 L 338,0 168,0 168,1409 419,1409 794,432 C 799,419 804,402 811,381 818,360 824,338 830,316 836,294 842,273 847,254 852,234 855,219 857,208 859,219 863,234 868,254 873,274 880,295 887,317 894,339 900,360 907,381 914,402 920,419 925,432 L 1293,1409 1538,1409 1538,0 1366,0 Z"/>
   <glyph unicode="K" horiz-adv-x="1191" d="M 1106,0 L 543,680 359,540 359,0 168,0 168,1409 359,1409 359,703 1038,1409 1263,1409 663,797 1343,0 1106,0 Z"/>
   <glyph unicode="I" horiz-adv-x="213" d="M 189,0 L 189,1409 380,1409 380,0 189,0 Z"/>
   <glyph unicode="F" horiz-adv-x="1006" d="M 359,1253 L 359,729 1145,729 1145,571 359,571 359,0 168,0 168,1409 1169,1409 1169,1253 359,1253 Z"/>
   <glyph unicode="E" horiz-adv-x="1138" d="M 168,0 L 168,1409 1237,1409 1237,1253 359,1253 359,801 1177,801 1177,647 359,647 359,156 1278,156 1278,0 168,0 Z"/>
   <glyph unicode="D" horiz-adv-x="1218" d="M 1381,719 C 1381,602 1363,498 1328,409 1293,319 1244,244 1183,184 1122,123 1049,78 966,47 882,16 792,0 695,0 L 168,0 168,1409 634,1409 C 743,1409 843,1396 935,1369 1026,1342 1105,1300 1171,1244 1237,1187 1289,1116 1326,1029 1363,942 1381,839 1381,719 Z M 1189,719 C 1189,814 1175,896 1148,964 1121,1031 1082,1087 1033,1130 984,1173 925,1205 856,1226 787,1246 712,1256 630,1256 L 359,1256 359,153 673,153 C 747,153 816,165 879,189 942,213 996,249 1042,296 1088,343 1124,402 1150,473 1176,544 1189,626 1189,719 Z"/>
   <glyph unicode="C" horiz-adv-x="1324" d="M 792,1274 C 712,1274 641,1261 580,1234 518,1207 466,1169 425,1120 383,1071 351,1011 330,942 309,873 298,796 298,711 298,626 310,549 333,479 356,408 389,348 432,297 475,246 527,207 590,179 652,151 722,137 800,137 855,137 905,144 950,159 995,173 1035,193 1072,219 1108,245 1140,276 1169,312 1198,347 1223,387 1245,430 L 1401,352 C 1376,299 1344,250 1307,205 1270,160 1226,120 1176,87 1125,54 1068,28 1005,9 941,-10 870,-20 791,-20 677,-20 577,-2 492,35 406,71 334,122 277,187 219,252 176,329 147,418 118,507 104,605 104,711 104,821 119,920 150,1009 180,1098 224,1173 283,1236 341,1298 413,1346 498,1380 583,1413 681,1430 790,1430 940,1430 1065,1401 1166,1342 1267,1283 1341,1196 1388,1081 L 1207,1021 C 1194,1054 1176,1086 1153,1117 1130,1147 1102,1174 1068,1197 1034,1220 994,1239 949,1253 903,1267 851,1274 792,1274 Z"/>
   <glyph unicode="A" horiz-adv-x="1377" d="M 1167,0 L 1006,412 364,412 202,0 4,0 579,1409 796,1409 1362,0 1167,0 Z M 768,1026 C 757,1053 747,1080 738,1107 728,1134 719,1159 712,1182 705,1204 699,1223 694,1238 689,1253 686,1262 685,1265 684,1262 681,1252 676,1237 671,1222 665,1203 658,1180 650,1157 641,1132 632,1105 622,1078 612,1051 602,1024 L 422,561 949,561 768,1026 Z"/>
   <glyph unicode="5" horiz-adv-x="980" d="M 1053,459 C 1053,388 1042,324 1021,265 1000,206 968,156 926,114 884,71 832,38 770,15 707,-8 635,-20 553,-20 479,-20 415,-11 360,6 305,23 258,47 220,78 182,108 152,143 130,184 107,225 91,268 82,315 L 264,336 C 271,309 282,284 295,259 308,234 327,211 350,192 373,172 401,156 435,145 468,133 509,127 557,127 604,127 646,134 684,149 722,163 755,184 782,212 809,240 829,274 844,315 859,356 866,402 866,455 866,498 859,538 845,575 831,611 811,642 785,669 759,695 727,715 690,730 652,745 609,752 561,752 531,752 503,749 478,744 453,739 429,731 408,722 386,713 366,702 349,690 331,677 314,664 299,651 L 123,651 170,1409 971,1409 971,1256 334,1256 307,809 C 339,834 379,855 427,873 475,890 532,899 598,899 668,899 731,888 787,867 843,846 891,816 930,777 969,738 1000,691 1021,637 1042,583 1053,524 1053,459 Z"/>
   <glyph unicode="4" horiz-adv-x="1060" d="M 881,319 L 881,0 711,0 711,319 47,319 47,459 692,1409 881,1409 881,461 1079,461 1079,319 881,319 Z M 711,1206 C 710,1203 706,1196 701,1187 696,1177 690,1166 683,1154 676,1142 670,1130 663,1118 656,1105 649,1095 644,1087 L 283,555 C 280,550 275,543 269,534 262,525 256,517 249,508 242,499 236,490 229,481 222,472 217,466 213,461 L 711,461 711,1206 Z"/>
   <glyph unicode="3" horiz-adv-x="1006" d="M 1049,389 C 1049,324 1039,267 1018,216 997,165 966,123 926,88 885,53 835,26 776,8 716,-11 648,-20 571,-20 484,-20 410,-9 351,13 291,34 242,63 203,99 164,134 135,175 116,221 97,266 84,313 78,362 L 264,379 C 269,342 279,308 294,277 308,246 327,220 352,198 377,176 407,159 443,147 479,135 522,129 571,129 662,129 733,151 785,196 836,241 862,307 862,395 862,447 851,489 828,521 805,552 776,577 742,595 707,612 670,624 630,630 589,636 552,639 518,639 L 416,639 416,795 514,795 C 548,795 583,799 620,806 657,813 690,825 721,844 751,862 776,887 796,918 815,949 825,989 825,1038 825,1113 803,1173 759,1217 714,1260 648,1282 561,1282 482,1282 418,1262 369,1221 320,1180 291,1123 283,1049 L 102,1063 C 109,1125 126,1179 153,1225 180,1271 214,1309 255,1340 296,1370 342,1393 395,1408 448,1423 504,1430 563,1430 642,1430 709,1420 766,1401 823,1381 869,1354 905,1321 941,1287 968,1247 985,1202 1002,1157 1010,1108 1010,1057 1010,1016 1004,977 993,941 982,905 964,873 940,844 916,815 886,791 849,770 812,749 767,734 715,723 L 715,719 C 772,713 821,700 863,681 905,661 940,636 967,607 994,578 1015,544 1029,507 1042,470 1049,430 1049,389 Z"/>
   <glyph unicode="." horiz-adv-x="213" d="M 187,0 L 187,219 382,219 382,0 187,0 Z"/>
   <glyph unicode="," horiz-adv-x="239" d="M 385,219 L 385,51 C 385,16 384,-16 381,-46 378,-74 373,-101 366,-127 359,-151 351,-175 342,-197 332,-219 320,-241 307,-262 L 184,-262 C 214,-219 237,-175 254,-131 270,-87 278,-43 278,0 L 190,0 190,219 385,219 Z"/>
   <glyph unicode="&apos;" horiz-adv-x="213" d="M 266,966 L 125,966 104,1409 288,1409 266,966 Z"/>
   <glyph unicode=" " horiz-adv-x="556"/>
  </font>
 </defs>
 <defs class="TextShapeIndex">
  <g ooo:slide="id1" ooo:id-list="id3 id4 id5 id6 id7 id8 id9 id10 id11 id12 id13 id14 id15 id16 id17 id18 id19 id20 id21 id22 id23 id24 id25 id26 id27 id28 id29 id30 id31 id32 id33 id34 id35"/>
 </defs>
 <defs class="EmbeddedBulletChars">
  <g id="bullet-char-template(57356)" transform="scale(0.00048828125,-0.00048828125)">
   <path d="M 580,1141 L 1163,571 580,0 -4,571 580,1141 Z"/>
  </g>
  <g id="bullet-char-template(57354)" transform="scale(0.00048828125,-0.00048828125)">
   <path d="M 8,1128 L 1137,1128 1137,0 8,0 8,1128 Z"/>
  </g>
  <g id="bullet-char-template(10146)" transform="scale(0.00048828125,-0.00048828125)">
   <path d="M 174,0 L 602,739 174,1481 1456,739 174,0 Z M 1358,739 L 309,1346 659,739 1358,739 Z"/>
  </g>
  <g id="bullet-char-template(10132)" transform="scale(0.00048828125,-0.00048828125)">
   <path d="M 2015,739 L 1276,0 717,0 1260,543 174,543 174,936 1260,936 717,1481 1274,1481 2015,739 Z"/>
  </g>
  <g id="bullet-char-template(10007)" transform="scale(0.00048828125,-0.00048828125)">
   <path d="M 0,-2 C -7,14 -16,27 -25,37 L 356,567 C 262,823 215,952 215,954 215,979 228,992 255,992 264,992 276,990 289,987 310,991 331,999 354,1012 L 381,999 492,748 772,1049 836,1024 860,1049 C 881,1039 901,1025 922,1006 886,937 835,863 770,784 769,783 710,716 594,584 L 774,223 C 774,196 753,168 711,139 L 727,119 C 717,90 699,76 672,76 641,76 570,178 457,381 L 164,-76 C 142,-110 111,-127 72,-127 30,-127 9,-110 8,-76 1,-67 -2,-52 -2,-32 -2,-23 -1,-13 0,-2 Z"/>
  </g>
  <g id="bullet-char-template(10004)" transform="scale(0.00048828125,-0.00048828125)">
   <path d="M 285,-33 C 182,-33 111,30 74,156 52,228 41,333 41,471 41,549 55,616 82,672 116,743 169,778 240,778 293,778 328,747 346,684 L 369,508 C 377,444 397,411 428,410 L 1163,1116 C 1174,1127 1196,1133 1229,1133 1271,1133 1292,1118 1292,1087 L 1292,965 C 1292,929 1282,901 1262,881 L 442,47 C 390,-6 338,-33 285,-33 Z"/>
  </g>
  <g id="bullet-char-template(9679)" transform="scale(0.00048828125,-0.00048828125)">
   <path d="M 813,0 C 632,0 489,54 383,161 276,268 223,411 223,592 223,773 276,916 383,1023 489,1130 632,1184 813,1184 992,1184 1136,1130 1245,1023 1353,916 1407,772 1407,592 1407,412 1353,268 1245,161 1136,54 992,0 813,0 Z"/>
  </g>
  <g id="bullet-char-template(8226)" transform="scale(0.00048828125,-0.00048828125)">
   <path d="M 346,457 C 273,457 209,483 155,535 101,586 74,649 74,723 74,796 101,859 155,911 209,963 273,989 346,989 419,989 480,963 531,910 582,859 608,796 608,723 608,648 583,586 532,535 482,483 420,457 346,457 Z"/>
  </g>
  <g id="bullet-char-template(8211)" transform="scale(0.00048828125,-0.00048828125)">
   <path d="M -4,459 L 1135,459 1135,606 -4,606 -4,459 Z"/>
  </g>
 </defs>
 <defs class="TextEmbeddedBitmaps"/>
 <g class="SlideGroup">
  <g>
   <g id="id1" class="Slide" clip-path="url(#presentation_clip_path)">
    <g class="Page">
     <g class="com.sun.star.drawing.LineShape">
      <g id="id3">
       <path fill="none" stroke="rgb(0,0,0)" d="M 4339,5794 L 4339,14896"/>
      </g>
     </g>
     <g class="com.sun.star.drawing.LineShape">
      <g id="id4">
       <path fill="none" stroke="rgb(0,0,0)" d="M 9439,5794 L 9439,14578"/>
      </g>
     </g>
     <g class="com.sun.star.drawing.TextShape">
      <g id="id5">
       <text class="TextShape"><tspan class="TextParagraph" font-family="Arial, sans-serif" font-size="353px" font-weight="400"><tspan class="TextPosition" x="3809" y="5500"/><tspan class="TextPosition" x="3809" y="5500"><tspan fill="rgb(0,0,0)" stroke="none">sender</tspan></tspan></tspan></text>
      </g>
     </g>
     <g class="com.sun.star.drawing.TextShape">
      <g id="id6">
       <text class="TextShape"><tspan class="TextParagraph" font-family="Arial, sans-serif" font-size="353px" font-weight="400"><tspan class="TextPosition" x="8810" y="5501"/><tspan class="TextPosition" x="8810" y="5501"><tspan fill="rgb(0,0,0)" stroke="none">receiver</tspan></tspan></tspan></text>
      </g>
     </g>
     <g class="com.sun.star.drawing.LineShape">
      <g id="id7">
       <path fill="none" stroke="rgb(0,0,0)" d="M 4339,6164 L 9228,6621"/>
       <path fill="rgb(0,0,0)" stroke="none" d="M 9445,6641 L 9225,6544 9211,6695 9445,6641 Z"/>
      </g>
     </g>
     <g class="com.sun.star.drawing.LineShape">
      <g id="id8">
       <path fill="none" stroke="rgb(0,0,255)" d="M 4339,8165 L 9228,8622"/>
       <path fill="rgb(0,0,255)" stroke="none" d="M 9445,8642 L 9225,8545 9211,8696 9445,8642 Z"/>
      </g>
     </g>
     <g class="com.sun.star.drawing.LineShape">
      <g id="id9">
       <path fill="none" stroke="rgb(0,0,0)" d="M 4339,9866 L 9228,10323"/>
       <path fill="rgb(0,0,0)" stroke="none" d="M 9445,10343 L 9225,10246 9211,10397 9445,10343 Z"/>
      </g>
     </g>
     <g class="com.sun.star.drawing.LineShape">
      <g id="id10">
       <path fill="none" stroke="rgb(0,0,0)" d="M 4339,12267 L 9228,12724"/>
       <path fill="rgb(0,0,0)" stroke="none" d="M 9445,12744 L 9225,12647 9211,12798 9445,12744 Z"/>
      </g>
     </g>
     <g class="com.sun.star.drawing.LineShape">
      <g id="id11">
       <path fill="none" stroke="rgb(0,0,255)" d="M 4339,11068 L 9228,11525"/>
       <path fill="rgb(0,0,255)" stroke="none" d="M 9445,11545 L 9225,11448 9211,11599 9445,11545 Z"/>
      </g>
     </g>
     <g class="com.sun.star.drawing.TextShape">
      <g id="id12">
       <text class="TextShape"><tspan class="TextParagraph" font-family="Arial, sans-serif" font-size="282px" font-weight="400"><tspan class="TextPosition" x="4970" y="6130"/><tspan class="TextPosition" x="4970" y="6130"><tspan fill="rgb(0,0,0)" stroke="none">First Data[3]</tspan></tspan></tspan></text>
      </g>
     </g>
     <g class="com.sun.star.drawing.TextShape">
      <g id="id13">
       <text class="TextShape"><tspan class="TextParagraph" font-family="Arial, sans-serif" font-size="282px" font-weight="400"><tspan class="TextPosition" x="4745" y="8131"/><tspan class="TextPosition" x="4745" y="8131"><tspan fill="rgb(0,0,0)" stroke="none">Second Data[3]</tspan></tspan></tspan></text>
      </g>
     </g>
     <g class="com.sun.star.drawing.LineShape">
      <g id="id14">
       <path fill="none" stroke="rgb(0,0,0)" d="M 9445,6852 L 9401,6878"/>
       <path fill="none" stroke="rgb(0,0,0)" d="M 9357,6904 L 9313,6930"/>
       <path fill="none" stroke="rgb(0,0,0)" d="M 9269,6955 L 9225,6981"/>
       <path fill="none" stroke="rgb(0,0,0)" d="M 9181,7007 L 9137,7033"/>
       <path fill="none" stroke="rgb(0,0,0)" d="M 9093,7059 L 9049,7085"/>
       <path fill="none" stroke="rgb(0,0,0)" d="M 9005,7111 L 8962,7137"/>
       <path fill="none" stroke="rgb(0,0,0)" d="M 8918,7162 L 8874,7188"/>
       <path fill="none" stroke="rgb(0,0,0)" d="M 8830,7214 L 8786,7240"/>
       <path fill="none" stroke="rgb(0,0,0)" d="M 8742,7266 L 8698,7292"/>
       <path fill="none" stroke="rgb(0,0,0)" d="M 8654,7318 L 8610,7344"/>
       <path fill="none" stroke="rgb(0,0,0)" d="M 8566,7369 L 8522,7395"/>
       <path fill="none" stroke="rgb(0,0,0)" d="M 8478,7421 L 8434,7447"/>
       <path fill="none" stroke="rgb(0,0,0)" d="M 8390,7473 L 8346,7499"/>
       <path fill="none" stroke="rgb(0,0,0)" d="M 8302,7525 L 8258,7550"/>
       <path fill="none" stroke="rgb(0,0,0)" d="M 8214,7576 L 8170,7602"/>
       <path fill="none" stroke="rgb(0,0,0)" d="M 8126,7628 L 8082,7654"/>
       <path fill="none" stroke="rgb(0,0,0)" d="M 8039,7680 L 7995,7706"/>
       <path fill="none" stroke="rgb(0,0,0)" d="M 7951,7732 L 7907,7757"/>
       <path fill="none" stroke="rgb(0,0,0)" d="M 7863,7783 L 7819,7809"/>
       <path fill="none" stroke="rgb(0,0,0)" d="M 7775,7835 L 7731,7861"/>
       <path fill="none" stroke="rgb(0,0,0)" d="M 7687,7887 L 7643,7913"/>
       <path fill="none" stroke="rgb(0,0,0)" d="M 7599,7939 L 7555,7964"/>
       <path fill="none" stroke="rgb(0,0,0)" d="M 7511,7990 L 7467,8016"/>
       <path fill="none" stroke="rgb(0,0,0)" d="M 7423,8042 L 7379,8068"/>
       <path fill="none" stroke="rgb(0,0,0)" d="M 7335,8094 L 7291,8120"/>
       <path fill="none" stroke="rgb(0,0,0)" d="M 7247,8145 L 7203,8171"/>
       <path fill="none" stroke="rgb(0,0,0)" d="M 7159,8197 L 7116,8223"/>
       <path fill="none" stroke="rgb(0,0,0)" d="M 7072,8249 L 7028,8275"/>
       <path fill="none" stroke="rgb(0,0,0)" d="M 6984,8301 L 6940,8327"/>
       <path fill="none" stroke="rgb(0,0,0)" d="M 6896,8352 L 6852,8378"/>
       <path fill="none" stroke="rgb(0,0,0)" d="M 6808,8404 L 6764,8430"/>
       <path fill="none" stroke="rgb(0,0,0)" d="M 6720,8456 L 6676,8482"/>
       <path fill="none" stroke="rgb(0,0,0)" d="M 6632,8508 L 6588,8534"/>
       <path fill="none" stroke="rgb(0,0,0)" d="M 6544,8559 L 6500,8585"/>
       <path fill="none" stroke="rgb(0,0,0)" d="M 6456,8611 L 6412,8637"/>
       <path fill="none" stroke="rgb(0,0,0)" d="M 6368,8663 L 6324,8689"/>
       <path fill="none" stroke="rgb(0,0,0)" d="M 6280,8715 L 6237,8740"/>
       <path fill="none" stroke="rgb(0,0,0)" d="M 6193,8766 L 6149,8792"/>
       <path fill="none" stroke="rgb(0,0,0)" d="M 6105,8818 L 6061,8844"/>
       <path fill="none" stroke="rgb(0,0,0)" d="M 6017,8870 L 5973,8896"/>
       <path fill="none" stroke="rgb(0,0,0)" d="M 5929,8922 L 5885,8947"/>
       <path fill="none" stroke="rgb(0,0,0)" d="M 5841,8973 L 5797,8999"/>
       <path fill="none" stroke="rgb(0,0,0)" d="M 5753,9025 L 5709,9051"/>
       <path fill="none" stroke="rgb(0,0,0)" d="M 5665,9077 L 5621,9103"/>
       <path fill="none" stroke="rgb(0,0,0)" d="M 5577,9129 L 5533,9154"/>
       <path fill="none" stroke="rgb(0,0,0)" d="M 5489,9180 L 5445,9206"/>
       <path fill="none" stroke="rgb(0,0,0)" d="M 5401,9232 L 5357,9258"/>
       <path fill="none" stroke="rgb(0,0,0)" d="M 5314,9284 L 5270,9310"/>
       <path fill="none" stroke="rgb(0,0,0)" d="M 5226,9335 L 5182,9361"/>
       <path fill="none" stroke="rgb(0,0,0)" d="M 5138,9387 L 5094,9413"/>
       <path fill="none" stroke="rgb(0,0,0)" d="M 5050,9439 L 5006,9465"/>
       <path fill="none" stroke="rgb(0,0,0)" d="M 4962,9491 L 4918,9517"/>
       <path fill="none" stroke="rgb(0,0,0)" d="M 4874,9542 L 4830,9568"/>
       <path fill="none" stroke="rgb(0,0,0)" d="M 4786,9594 L 4742,9620"/>
       <path fill="none" stroke="rgb(0,0,0)" d="M 4698,9646 L 4654,9672"/>
       <path fill="none" stroke="rgb(0,0,0)" d="M 4610,9698 L 4566,9723"/>
       <path fill="rgb(0,0,0)" stroke="none" d="M 4365,9842 L 4600,9792 4523,9661 4365,9842 Z"/>
      </g>
     </g>
     <g class="com.sun.star.drawing.TextShape">
      <g id="id15">
       <text class="TextShape"><tspan class="TextParagraph" font-family="Arial, sans-serif" font-size="282px" font-weight="400"><tspan class="TextPosition" x="9553" y="6982"/><tspan class="TextPosition" x="9553" y="6982"><tspan fill="rgb(0,0,0)" stroke="none">First ACK[3], delayed</tspan></tspan></tspan></text>
      </g>
     </g>
     <g class="com.sun.star.drawing.TextShape">
      <g id="id16">
       <text class="TextShape"><tspan class="TextParagraph" font-family="Arial, sans-serif" font-size="353px" font-weight="400"><tspan class="TextPosition" x="2628" y="8278"/><tspan class="TextPosition" x="2628" y="8278"><tspan fill="rgb(0,0,0)" stroke="none">TIMEOUT</tspan></tspan></tspan></text>
      </g>
     </g>
     <g class="com.sun.star.drawing.TextShape">
      <g id="id17">
       <text class="TextShape"><tspan class="TextParagraph" font-family="Arial, sans-serif" font-size="282px" font-weight="400"><tspan class="TextPosition" x="5045" y="9857"/><tspan class="TextPosition" x="5045" y="9857"><tspan fill="rgb(0,0,0)" stroke="none">First Data[4]</tspan></tspan></tspan></text>
      </g>
     </g>
     <g class="com.sun.star.drawing.LineShape">
      <g id="id18">
       <path fill="none" stroke="rgb(0,0,255)" d="M 9445,8652 L 9399,8674"/>
       <path fill="none" stroke="rgb(0,0,255)" d="M 9353,8695 L 9307,8717"/>
       <path fill="none" stroke="rgb(0,0,255)" d="M 9260,8739 L 9214,8761"/>
       <path fill="none" stroke="rgb(0,0,255)" d="M 9168,8782 L 9122,8804"/>
       <path fill="none" stroke="rgb(0,0,255)" d="M 9076,8826 L 9030,8848"/>
       <path fill="none" stroke="rgb(0,0,255)" d="M 8984,8869 L 8938,8891"/>
       <path fill="none" stroke="rgb(0,0,255)" d="M 8891,8913 L 8845,8935"/>
       <path fill="none" stroke="rgb(0,0,255)" d="M 8799,8956 L 8753,8978"/>
       <path fill="none" stroke="rgb(0,0,255)" d="M 8707,9000 L 8661,9022"/>
       <path fill="none" stroke="rgb(0,0,255)" d="M 8615,9043 L 8569,9065"/>
       <path fill="none" stroke="rgb(0,0,255)" d="M 8522,9087 L 8476,9109"/>
       <path fill="none" stroke="rgb(0,0,255)" d="M 8430,9130 L 8384,9152"/>
       <path fill="none" stroke="rgb(0,0,255)" d="M 8338,9174 L 8292,9196"/>
       <path fill="none" stroke="rgb(0,0,255)" d="M 8246,9217 L 8199,9239"/>
       <path fill="none" stroke="rgb(0,0,255)" d="M 8153,9261 L 8107,9283"/>
       <path fill="none" stroke="rgb(0,0,255)" d="M 8061,9304 L 8015,9326"/>
       <path fill="none" stroke="rgb(0,0,255)" d="M 7969,9348 L 7923,9370"/>
       <path fill="none" stroke="rgb(0,0,255)" d="M 7877,9391 L 7830,9413"/>
       <path fill="none" stroke="rgb(0,0,255)" d="M 7784,9435 L 7738,9457"/>
       <path fill="none" stroke="rgb(0,0,255)" d="M 7692,9478 L 7646,9500"/>
       <path fill="none" stroke="rgb(0,0,255)" d="M 7600,9522 L 7554,9544"/>
       <path fill="none" stroke="rgb(0,0,255)" d="M 7507,9565 L 7461,9587"/>
       <path fill="none" stroke="rgb(0,0,255)" d="M 7415,9609 L 7369,9631"/>
       <path fill="none" stroke="rgb(0,0,255)" d="M 7323,9652 L 7277,9674"/>
       <path fill="none" stroke="rgb(0,0,255)" d="M 7231,9696 L 7185,9718"/>
       <path fill="none" stroke="rgb(0,0,255)" d="M 7138,9739 L 7092,9761"/>
       <path fill="none" stroke="rgb(0,0,255)" d="M 7046,9783 L 7000,9805"/>
       <path fill="none" stroke="rgb(0,0,255)" d="M 6954,9826 L 6908,9848"/>
       <path fill="none" stroke="rgb(0,0,255)" d="M 6862,9870 L 6816,9892"/>
       <path fill="none" stroke="rgb(0,0,255)" d="M 6769,9913 L 6723,9935"/>
       <path fill="none" stroke="rgb(0,0,255)" d="M 6677,9957 L 6631,9979"/>
       <path fill="none" stroke="rgb(0,0,255)" d="M 6585,10000 L 6539,10022"/>
       <path fill="none" stroke="rgb(0,0,255)" d="M 6493,10044 L 6446,10066"/>
       <path fill="none" stroke="rgb(0,0,255)" d="M 6400,10087 L 6354,10109"/>
       <path fill="none" stroke="rgb(0,0,255)" d="M 6308,10131 L 6262,10153"/>
       <path fill="none" stroke="rgb(0,0,255)" d="M 6216,10174 L 6170,10196"/>
       <path fill="none" stroke="rgb(0,0,255)" d="M 6124,10218 L 6077,10239"/>
       <path fill="none" stroke="rgb(0,0,255)" d="M 6031,10261 L 5985,10283"/>
       <path fill="none" stroke="rgb(0,0,255)" d="M 5939,10305 L 5893,10326"/>
       <path fill="none" stroke="rgb(0,0,255)" d="M 5847,10348 L 5801,10370"/>
       <path fill="none" stroke="rgb(0,0,255)" d="M 5755,10392 L 5708,10413"/>
       <path fill="none" stroke="rgb(0,0,255)" d="M 5662,10435 L 5616,10457"/>
       <path fill="none" stroke="rgb(0,0,255)" d="M 5570,10479 L 5524,10500"/>
       <path fill="none" stroke="rgb(0,0,255)" d="M 5478,10522 L 5432,10544"/>
       <path fill="none" stroke="rgb(0,0,255)" d="M 5385,10566 L 5339,10587"/>
       <path fill="none" stroke="rgb(0,0,255)" d="M 5293,10609 L 5247,10631"/>
       <path fill="none" stroke="rgb(0,0,255)" d="M 5201,10653 L 5155,10674"/>
       <path fill="none" stroke="rgb(0,0,255)" d="M 5109,10696 L 5063,10718"/>
       <path fill="none" stroke="rgb(0,0,255)" d="M 5016,10740 L 4970,10761"/>
       <path fill="none" stroke="rgb(0,0,255)" d="M 4924,10783 L 4878,10805"/>
       <path fill="none" stroke="rgb(0,0,255)" d="M 4832,10827 L 4786,10848"/>
       <path fill="none" stroke="rgb(0,0,255)" d="M 4740,10870 L 4693,10892"/>
       <path fill="none" stroke="rgb(0,0,255)" d="M 4647,10914 L 4601,10935"/>
       <path fill="none" stroke="rgb(0,0,255)" d="M 4555,10957 L 4536,10966"/>
       <path fill="rgb(0,0,255)" stroke="none" d="M 4339,11059 L 4578,11031 4513,10893 4339,11059 Z"/>
      </g>
     </g>
     <g class="com.sun.star.drawing.TextShape">
      <g id="id19">
       <text class="TextShape"><tspan class="TextParagraph" font-family="Arial, sans-serif" font-size="282px" font-weight="400"><tspan class="TextPosition" x="9580" y="8802"/><tspan class="TextPosition" x="9580" y="8802"><tspan fill="rgb(0,0,0)" stroke="none">Second ACK[3]</tspan></tspan></tspan></text>
      </g>
     </g>
     <g class="com.sun.star.drawing.LineShape">
      <g id="id20">
       <path fill="none" stroke="rgb(0,0,0)" d="M 9445,10353 L 9397,10371"/>
       <path fill="none" stroke="rgb(0,0,0)" d="M 9349,10388 L 9302,10406"/>
       <path fill="none" stroke="rgb(0,0,0)" d="M 9254,10424 L 9206,10442"/>
       <path fill="none" stroke="rgb(0,0,0)" d="M 9158,10459 L 9110,10477"/>
       <path fill="none" stroke="rgb(0,0,0)" d="M 9062,10495 L 9015,10512"/>
       <path fill="none" stroke="rgb(0,0,0)" d="M 8967,10530 L 8919,10548"/>
       <path fill="none" stroke="rgb(0,0,0)" d="M 8871,10565 L 8823,10583"/>
       <path fill="none" stroke="rgb(0,0,0)" d="M 8775,10601 L 8728,10619"/>
       <path fill="none" stroke="rgb(0,0,0)" d="M 8680,10636 L 8632,10654"/>
       <path fill="none" stroke="rgb(0,0,0)" d="M 8584,10672 L 8536,10689"/>
       <path fill="none" stroke="rgb(0,0,0)" d="M 8488,10707 L 8441,10725"/>
       <path fill="none" stroke="rgb(0,0,0)" d="M 8393,10742 L 8345,10760"/>
       <path fill="none" stroke="rgb(0,0,0)" d="M 8297,10778 L 8249,10796"/>
       <path fill="none" stroke="rgb(0,0,0)" d="M 8201,10813 L 8154,10831"/>
       <path fill="none" stroke="rgb(0,0,0)" d="M 8106,10849 L 8058,10866"/>
       <path fill="none" stroke="rgb(0,0,0)" d="M 8010,10884 L 7962,10902"/>
       <path fill="none" stroke="rgb(0,0,0)" d="M 7914,10919 L 7867,10937"/>
       <path fill="none" stroke="rgb(0,0,0)" d="M 7819,10955 L 7771,10973"/>
       <path fill="none" stroke="rgb(0,0,0)" d="M 7723,10990 L 7675,11008"/>
       <path fill="none" stroke="rgb(0,0,0)" d="M 7627,11026 L 7580,11043"/>
       <path fill="none" stroke="rgb(0,0,0)" d="M 7532,11061 L 7484,11079"/>
       <path fill="none" stroke="rgb(0,0,0)" d="M 7436,11096 L 7388,11114"/>
       <path fill="none" stroke="rgb(0,0,0)" d="M 7340,11132 L 7293,11150"/>
       <path fill="none" stroke="rgb(0,0,0)" d="M 7245,11167 L 7197,11185"/>
       <path fill="none" stroke="rgb(0,0,0)" d="M 7149,11203 L 7101,11220"/>
       <path fill="none" stroke="rgb(0,0,0)" d="M 7054,11238 L 7006,11256"/>
       <path fill="none" stroke="rgb(0,0,0)" d="M 6958,11273 L 6910,11291"/>
       <path fill="none" stroke="rgb(0,0,0)" d="M 6862,11309 L 6814,11327"/>
       <path fill="none" stroke="rgb(0,0,0)" d="M 6767,11344 L 6719,11362"/>
       <path fill="none" stroke="rgb(0,0,0)" d="M 6671,11380 L 6623,11397"/>
       <path fill="none" stroke="rgb(0,0,0)" d="M 6575,11415 L 6527,11433"/>
       <path fill="none" stroke="rgb(0,0,0)" d="M 6480,11450 L 6432,11468"/>
       <path fill="none" stroke="rgb(0,0,0)" d="M 6384,11486 L 6336,11504"/>
       <path fill="none" stroke="rgb(0,0,0)" d="M 6288,11521 L 6240,11539"/>
       <path fill="none" stroke="rgb(0,0,0)" d="M 6193,11557 L 6145,11574"/>
       <path fill="none" stroke="rgb(0,0,0)" d="M 6097,11592 L 6049,11610"/>
       <path fill="none" stroke="rgb(0,0,0)" d="M 6001,11627 L 5953,11645"/>
       <path fill="none" stroke="rgb(0,0,0)" d="M 5906,11663 L 5858,11681"/>
       <path fill="none" stroke="rgb(0,0,0)" d="M 5810,11698 L 5762,11716"/>
       <path fill="none" stroke="rgb(0,0,0)" d="M 5714,11734 L 5666,11751"/>
       <path fill="none" stroke="rgb(0,0,0)" d="M 5619,11769 L 5571,11787"/>
       <path fill="none" stroke="rgb(0,0,0)" d="M 5523,11804 L 5475,11822"/>
       <path fill="none" stroke="rgb(0,0,0)" d="M 5427,11840 L 5379,11858"/>
       <path fill="none" stroke="rgb(0,0,0)" d="M 5332,11875 L 5284,11893"/>
       <path fill="none" stroke="rgb(0,0,0)" d="M 5236,11911 L 5188,11928"/>
       <path fill="none" stroke="rgb(0,0,0)" d="M 5140,11946 L 5092,11964"/>
       <path fill="none" stroke="rgb(0,0,0)" d="M 5045,11981 L 4997,11999"/>
       <path fill="none" stroke="rgb(0,0,0)" d="M 4949,12017 L 4901,12035"/>
       <path fill="none" stroke="rgb(0,0,0)" d="M 4853,12052 L 4806,12070"/>
       <path fill="none" stroke="rgb(0,0,0)" d="M 4758,12088 L 4710,12105"/>
       <path fill="none" stroke="rgb(0,0,0)" d="M 4662,12123 L 4614,12141"/>
       <path fill="rgb(0,0,0)" stroke="none" d="M 4392,12223 L 4632,12215 4579,12073 4392,12223 Z"/>
      </g>
     </g>
     <g class="com.sun.star.drawing.TextShape">
      <g id="id21">
       <text class="TextShape"><tspan class="TextParagraph" font-family="Arial, sans-serif" font-size="282px" font-weight="400"><tspan class="TextPosition" x="9580" y="10402"/><tspan class="TextPosition" x="9580" y="10402"><tspan fill="rgb(0,0,0)" stroke="none">First ACK[4]</tspan></tspan></tspan></text>
      </g>
     </g>
     <g class="com.sun.star.drawing.LineShape">
      <g id="id22">
       <path fill="none" stroke="rgb(0,0,255)" d="M 9445,11562 L 9397,11579"/>
       <path fill="none" stroke="rgb(0,0,255)" d="M 9349,11596 L 9301,11613"/>
       <path fill="none" stroke="rgb(0,0,255)" d="M 9253,11631 L 9205,11648"/>
       <path fill="none" stroke="rgb(0,0,255)" d="M 9157,11665 L 9109,11682"/>
       <path fill="none" stroke="rgb(0,0,255)" d="M 9061,11699 L 9013,11716"/>
       <path fill="none" stroke="rgb(0,0,255)" d="M 8965,11734 L 8917,11751"/>
       <path fill="none" stroke="rgb(0,0,255)" d="M 8869,11768 L 8821,11785"/>
       <path fill="none" stroke="rgb(0,0,255)" d="M 8773,11802 L 8725,11819"/>
       <path fill="none" stroke="rgb(0,0,255)" d="M 8677,11837 L 8629,11854"/>
       <path fill="none" stroke="rgb(0,0,255)" d="M 8581,11871 L 8533,11888"/>
       <path fill="none" stroke="rgb(0,0,255)" d="M 8485,11905 L 8436,11922"/>
       <path fill="none" stroke="rgb(0,0,255)" d="M 8388,11940 L 8340,11957"/>
       <path fill="none" stroke="rgb(0,0,255)" d="M 8292,11974 L 8244,11991"/>
       <path fill="none" stroke="rgb(0,0,255)" d="M 8196,12008 L 8148,12025"/>
       <path fill="none" stroke="rgb(0,0,255)" d="M 8100,12043 L 8052,12060"/>
       <path fill="none" stroke="rgb(0,0,255)" d="M 8004,12077 L 7956,12094"/>
       <path fill="none" stroke="rgb(0,0,255)" d="M 7908,12111 L 7860,12128"/>
       <path fill="none" stroke="rgb(0,0,255)" d="M 7812,12146 L 7764,12163"/>
       <path fill="none" stroke="rgb(0,0,255)" d="M 7716,12180 L 7668,12197"/>
       <path fill="none" stroke="rgb(0,0,255)" d="M 7620,12214 L 7572,12231"/>
       <path fill="none" stroke="rgb(0,0,255)" d="M 7524,12249 L 7476,12266"/>
       <path fill="none" stroke="rgb(0,0,255)" d="M 7428,12283 L 7380,12300"/>
       <path fill="none" stroke="rgb(0,0,255)" d="M 7332,12317 L 7284,12334"/>
       <path fill="none" stroke="rgb(0,0,255)" d="M 7236,12352 L 7188,12369"/>
       <path fill="none" stroke="rgb(0,0,255)" d="M 7140,12386 L 7092,12403"/>
       <path fill="none" stroke="rgb(0,0,255)" d="M 7044,12420 L 6996,12437"/>
       <path fill="none" stroke="rgb(0,0,255)" d="M 6948,12455 L 6900,12472"/>
       <path fill="none" stroke="rgb(0,0,255)" d="M 6852,12489 L 6804,12506"/>
       <path fill="none" stroke="rgb(0,0,255)" d="M 6756,12523 L 6708,12540"/>
       <path fill="none" stroke="rgb(0,0,255)" d="M 6660,12558 L 6612,12575"/>
       <path fill="none" stroke="rgb(0,0,255)" d="M 6564,12592 L 6516,12609"/>
       <path fill="none" stroke="rgb(0,0,255)" d="M 6467,12626 L 6419,12643"/>
       <path fill="none" stroke="rgb(0,0,255)" d="M 6371,12661 L 6323,12678"/>
       <path fill="none" stroke="rgb(0,0,255)" d="M 6275,12695 L 6227,12712"/>
       <path fill="none" stroke="rgb(0,0,255)" d="M 6179,12729 L 6131,12746"/>
       <path fill="none" stroke="rgb(0,0,255)" d="M 6083,12764 L 6035,12781"/>
       <path fill="none" stroke="rgb(0,0,255)" d="M 5987,12798 L 5939,12815"/>
       <path fill="none" stroke="rgb(0,0,255)" d="M 5891,12832 L 5843,12849"/>
       <path fill="none" stroke="rgb(0,0,255)" d="M 5795,12867 L 5747,12884"/>
       <path fill="none" stroke="rgb(0,0,255)" d="M 5699,12901 L 5651,12918"/>
       <path fill="none" stroke="rgb(0,0,255)" d="M 5603,12935 L 5555,12952"/>
       <path fill="none" stroke="rgb(0,0,255)" d="M 5507,12970 L 5459,12987"/>
       <path fill="none" stroke="rgb(0,0,255)" d="M 5411,13004 L 5363,13021"/>
       <path fill="none" stroke="rgb(0,0,255)" d="M 5315,13038 L 5267,13055"/>
       <path fill="none" stroke="rgb(0,0,255)" d="M 5219,13073 L 5171,13090"/>
       <path fill="none" stroke="rgb(0,0,255)" d="M 5123,13107 L 5075,13124"/>
       <path fill="none" stroke="rgb(0,0,255)" d="M 5027,13141 L 4979,13158"/>
       <path fill="none" stroke="rgb(0,0,255)" d="M 4931,13176 L 4883,13193"/>
       <path fill="none" stroke="rgb(0,0,255)" d="M 4835,13210 L 4787,13227"/>
       <path fill="none" stroke="rgb(0,0,255)" d="M 4739,13244 L 4691,13261"/>
       <path fill="none" stroke="rgb(0,0,255)" d="M 4643,13279 L 4595,13296"/>
       <path fill="none" stroke="rgb(0,0,255)" d="M 4546,13313 L 4544,13314"/>
       <path fill="rgb(0,0,255)" stroke="none" d="M 4339,13387 L 4579,13382 4528,13239 4339,13387 Z"/>
      </g>
     </g>
     <g class="com.sun.star.drawing.TextShape">
      <g id="id23">
       <text class="TextShape"><tspan class="TextParagraph" font-family="Arial, sans-serif" font-size="282px" font-weight="400"><tspan class="TextPosition" x="5046" y="11058"/><tspan class="TextPosition" x="5046" y="11058"><tspan fill="rgb(0,0,0)" stroke="none">Second Data[4]</tspan></tspan></tspan></text>
      </g>
     </g>
     <g class="com.sun.star.drawing.TextShape">
      <g id="id24">
       <text class="TextShape"><tspan class="TextParagraph" font-family="Arial, sans-serif" font-size="282px" font-weight="400"><tspan class="TextPosition" x="9580" y="11603"/><tspan class="TextPosition" x="9580" y="11603"><tspan fill="rgb(0,0,0)" stroke="none">Second ACK[4]</tspan></tspan></tspan></text>
      </g>
     </g>
     <g class="com.sun.star.drawing.TextShape">
      <g id="id25">
       <text class="TextShape"><tspan class="TextParagraph" font-family="Arial, sans-serif" font-size="282px" font-weight="400"><tspan class="TextPosition" x="5046" y="12284"/><tspan class="TextPosition" x="5046" y="12284"><tspan fill="rgb(0,0,0)" stroke="none">First Data[5]</tspan></tspan></tspan></text>
      </g>
     </g>
     <g class="com.sun.star.drawing.LineShape">
      <g id="id26">
       <path fill="none" stroke="rgb(0,0,255)" d="M 4339,13468 L 9228,13925"/>
       <path fill="rgb(0,0,255)" stroke="none" d="M 9445,13945 L 9225,13848 9211,13999 9445,13945 Z"/>
      </g>
     </g>
     <g class="com.sun.star.drawing.TextShape">
      <g id="id27">
       <text class="TextShape"><tspan class="TextParagraph" font-family="Arial, sans-serif" font-size="282px" font-weight="400"><tspan class="TextPosition" x="5046" y="13484"/><tspan class="TextPosition" x="5046" y="13484"><tspan fill="rgb(0,0,0)" stroke="none">Second Data[5]</tspan></tspan></tspan></text>
      </g>
     </g>
     <g class="com.sun.star.drawing.LineShape">
      <g id="id28">
       <path fill="none" stroke="rgb(0,0,0)" d="M 9446,12763 L 9398,12780"/>
       <path fill="none" stroke="rgb(0,0,0)" d="M 9350,12797 L 9302,12813"/>
       <path fill="none" stroke="rgb(0,0,0)" d="M 9253,12830 L 9205,12847"/>
       <path fill="none" stroke="rgb(0,0,0)" d="M 9157,12864 L 9109,12880"/>
       <path fill="none" stroke="rgb(0,0,0)" d="M 9061,12897 L 9013,12914"/>
       <path fill="none" stroke="rgb(0,0,0)" d="M 8964,12931 L 8916,12948"/>
       <path fill="none" stroke="rgb(0,0,0)" d="M 8868,12964 L 8820,12981"/>
       <path fill="none" stroke="rgb(0,0,0)" d="M 8772,12998 L 8724,13015"/>
       <path fill="none" stroke="rgb(0,0,0)" d="M 8675,13032 L 8627,13048"/>
       <path fill="none" stroke="rgb(0,0,0)" d="M 8579,13065 L 8531,13082"/>
       <path fill="none" stroke="rgb(0,0,0)" d="M 8483,13099 L 8435,13115"/>
       <path fill="none" stroke="rgb(0,0,0)" d="M 8386,13132 L 8338,13149"/>
       <path fill="none" stroke="rgb(0,0,0)" d="M 8290,13166 L 8242,13183"/>
       <path fill="none" stroke="rgb(0,0,0)" d="M 8194,13199 L 8146,13216"/>
       <path fill="none" stroke="rgb(0,0,0)" d="M 8098,13233 L 8049,13250"/>
       <path fill="none" stroke="rgb(0,0,0)" d="M 8001,13267 L 7953,13283"/>
       <path fill="none" stroke="rgb(0,0,0)" d="M 7905,13300 L 7857,13317"/>
       <path fill="none" stroke="rgb(0,0,0)" d="M 7809,13334 L 7760,13350"/>
       <path fill="none" stroke="rgb(0,0,0)" d="M 7712,13367 L 7664,13384"/>
       <path fill="none" stroke="rgb(0,0,0)" d="M 7616,13401 L 7568,13418"/>
       <path fill="none" stroke="rgb(0,0,0)" d="M 7520,13434 L 7471,13451"/>
       <path fill="none" stroke="rgb(0,0,0)" d="M 7423,13468 L 7375,13485"/>
       <path fill="none" stroke="rgb(0,0,0)" d="M 7327,13501 L 7279,13518"/>
       <path fill="none" stroke="rgb(0,0,0)" d="M 7231,13535 L 7183,13552"/>
       <path fill="none" stroke="rgb(0,0,0)" d="M 7134,13569 L 7086,13585"/>
       <path fill="none" stroke="rgb(0,0,0)" d="M 7038,13602 L 6990,13619"/>
       <path fill="none" stroke="rgb(0,0,0)" d="M 6942,13636 L 6894,13653"/>
       <path fill="none" stroke="rgb(0,0,0)" d="M 6845,13669 L 6797,13686"/>
       <path fill="none" stroke="rgb(0,0,0)" d="M 6749,13703 L 6701,13720"/>
       <path fill="none" stroke="rgb(0,0,0)" d="M 6653,13736 L 6605,13753"/>
       <path fill="none" stroke="rgb(0,0,0)" d="M 6556,13770 L 6508,13787"/>
       <path fill="none" stroke="rgb(0,0,0)" d="M 6460,13804 L 6412,13820"/>
       <path fill="none" stroke="rgb(0,0,0)" d="M 6364,13837 L 6316,13854"/>
       <path fill="none" stroke="rgb(0,0,0)" d="M 6267,13871 L 6219,13888"/>
       <path fill="none" stroke="rgb(0,0,0)" d="M 6171,13904 L 6123,13921"/>
       <path fill="none" stroke="rgb(0,0,0)" d="M 6075,13938 L 6027,13955"/>
       <path fill="none" stroke="rgb(0,0,0)" d="M 5979,13971 L 5930,13988"/>
       <path fill="none" stroke="rgb(0,0,0)" d="M 5882,14005 L 5834,14022"/>
       <path fill="none" stroke="rgb(0,0,0)" d="M 5786,14039 L 5738,14055"/>
       <path fill="none" stroke="rgb(0,0,0)" d="M 5690,14072 L 5641,14089"/>
       <path fill="none" stroke="rgb(0,0,0)" d="M 5593,14106 L 5545,14122"/>
       <path fill="none" stroke="rgb(0,0,0)" d="M 5497,14139 L 5449,14156"/>
       <path fill="none" stroke="rgb(0,0,0)" d="M 5401,14173 L 5352,14190"/>
       <path fill="none" stroke="rgb(0,0,0)" d="M 5304,14206 L 5256,14223"/>
       <path fill="none" stroke="rgb(0,0,0)" d="M 5208,14240 L 5160,14257"/>
       <path fill="none" stroke="rgb(0,0,0)" d="M 5112,14274 L 5064,14290"/>
       <path fill="none" stroke="rgb(0,0,0)" d="M 5015,14307 L 4967,14324"/>
       <path fill="none" stroke="rgb(0,0,0)" d="M 4919,14341 L 4871,14357"/>
       <path fill="none" stroke="rgb(0,0,0)" d="M 4823,14374 L 4775,14391"/>
       <path fill="none" stroke="rgb(0,0,0)" d="M 4726,14408 L 4678,14425"/>
       <path fill="none" stroke="rgb(0,0,0)" d="M 4630,14441 L 4599,14452"/>
       <path fill="rgb(0,0,0)" stroke="none" d="M 4393,14524 L 4633,14521 4583,14377 4393,14524 Z"/>
      </g>
     </g>
     <g class="com.sun.star.drawing.TextShape">
      <g id="id29">
       <text class="TextShape"><tspan class="TextParagraph" font-family="Arial, sans-serif" font-size="282px" font-weight="400"><tspan class="TextPosition" x="9580" y="12855"/><tspan class="TextPosition" x="9580" y="12855"><tspan fill="rgb(0,0,0)" stroke="none">First ACK[5]</tspan></tspan></tspan></text>
      </g>
     </g>
     <g class="com.sun.star.drawing.TextShape">
      <g id="id30">
       <text class="TextShape"><tspan class="TextParagraph" font-family="Arial, sans-serif" font-size="282px" font-weight="400"><tspan class="TextPosition" x="9580" y="10403"/><tspan class="TextPosition" x="9580" y="10403"><tspan fill="rgb(0,0,0)" stroke="none">First ACK[4]</tspan></tspan></tspan></text>
      </g>
     </g>
     <g class="com.sun.star.drawing.TextShape">
      <g id="id31">
       <text class="TextShape"><tspan class="TextParagraph" font-family="Arial, sans-serif" font-size="282px" font-weight="400"><tspan class="TextPosition" x="9580" y="14056"/><tspan class="TextPosition" x="9580" y="14056"><tspan fill="rgb(0,0,0)" stroke="none">Second ACK[5]</tspan></tspan></tspan></text>
      </g>
     </g>
     <g class="com.sun.star.drawing.LineShape">
      <g id="id32">
       <path fill="none" stroke="rgb(0,0,255)" d="M 9447,13964 L 9399,13981"/>
       <path fill="none" stroke="rgb(0,0,255)" d="M 9351,13998 L 9303,14015"/>
       <path fill="none" stroke="rgb(0,0,255)" d="M 9255,14032 L 9207,14049"/>
       <path fill="none" stroke="rgb(0,0,255)" d="M 9159,14066 L 9110,14083"/>
       <path fill="none" stroke="rgb(0,0,255)" d="M 9062,14100 L 9014,14117"/>
       <path fill="none" stroke="rgb(0,0,255)" d="M 8966,14134 L 8918,14151"/>
       <path fill="none" stroke="rgb(0,0,255)" d="M 8870,14168 L 8822,14185"/>
       <path fill="none" stroke="rgb(0,0,255)" d="M 8774,14202 L 8726,14219"/>
       <path fill="none" stroke="rgb(0,0,255)" d="M 8678,14236 L 8630,14253"/>
       <path fill="none" stroke="rgb(0,0,255)" d="M 8582,14270 L 8533,14287"/>
       <path fill="none" stroke="rgb(0,0,255)" d="M 8485,14304 L 8437,14321"/>
       <path fill="none" stroke="rgb(0,0,255)" d="M 8389,14338 L 8341,14355"/>
       <path fill="none" stroke="rgb(0,0,255)" d="M 8293,14372 L 8245,14389"/>
       <path fill="none" stroke="rgb(0,0,255)" d="M 8197,14406 L 8149,14423"/>
       <path fill="none" stroke="rgb(0,0,255)" d="M 8101,14440 L 8053,14457"/>
       <path fill="none" stroke="rgb(0,0,255)" d="M 8005,14474 L 7956,14491"/>
       <path fill="none" stroke="rgb(0,0,255)" d="M 7908,14508 L 7860,14525"/>
       <path fill="none" stroke="rgb(0,0,255)" d="M 7812,14542 L 7764,14559"/>
       <path fill="none" stroke="rgb(0,0,255)" d="M 7716,14576 L 7692,14584"/>
       <path fill="rgb(0,0,255)" stroke="none" d="M 7487,14657 L 7727,14653 7677,14509 7487,14657 Z"/>
      </g>
     </g>
     <g class="com.sun.star.drawing.TextShape">
      <g id="id33">
       <text class="TextShape"><tspan class="TextParagraph" font-family="Arial, sans-serif" font-size="353px" font-weight="400"><tspan class="TextPosition" x="7076" y="14741"/><tspan class="TextPosition" x="7076" y="14741"><tspan fill="rgb(0,0,0)" stroke="none">...</tspan></tspan></tspan></text>
      </g>
     </g>
     <g class="com.sun.star.drawing.TextShape">
      <g id="id34">
       <text class="TextShape"><tspan class="TextParagraph" font-family="Arial, sans-serif" font-size="353px" font-weight="400"><tspan class="TextPosition" x="4395" y="15786"/><tspan class="TextPosition" x="4395" y="15786"><tspan fill="rgb(0,0,0)" stroke="none">The Sorcerer&apos;s Apprentice bug</tspan></tspan></tspan><tspan class="TextParagraph" font-family="Arial, sans-serif" font-size="353px" font-weight="400"><tspan class="TextPosition" x="4395" y="16184"/><tspan class="TextPosition" x="4395" y="16184"><tspan fill="rgb(0,0,0)" stroke="none">First transmissions are in black</tspan></tspan></tspan><tspan class="TextParagraph" font-family="Arial, sans-serif" font-size="353px" font-weight="400"><tspan class="TextPosition" x="4395" y="16582"/><tspan class="TextPosition" x="4395" y="16582"><tspan fill="rgb(0,0,0)" stroke="none">Second transmissions are in blue</tspan></tspan></tspan></text>
      </g>
     </g>
     <g class="com.sun.star.drawing.CustomShape">
      <g id="id35">
       <path fill="none" stroke="rgb(255,255,255)" d="M 7454,16943 L 2188,16943 2188,4782 12720,4782 12720,16943 7454,16943 Z"/>
      </g>
     </g>
    </g>
   </g>
  </g>
 </g>
</svg>